<svg width="137" height="137" viewBox="0 0 137 137" fill="none" xmlns="http://www.w3.org/2000/svg">
<path d="M68.5 0C30.7297 0 0 30.7297 0 68.5C0 106.27 30.7297 137 68.5 137C106.273 137 137 106.27 137 68.5C137 30.7297 106.273 0 68.5 0ZM68.5 131.043C34.0117 131.043 5.95652 102.988 5.95652 68.5C5.95652 34.0117 34.0117 5.95652 68.5 5.95652C102.985 5.95652 131.043 34.0117 131.043 68.5C131.043 102.988 102.985 131.043 68.5 131.043Z" fill="#1F4D81"/>
<path d="M53.6087 56.5869C53.6087 51.6608 49.6 47.6521 44.6739 47.6521C39.7479 47.6521 35.7391 51.6608 35.7391 56.5869C35.7391 61.5129 39.7479 65.5217 44.6739 65.5217C49.6 65.5217 53.6087 61.5129 53.6087 56.5869ZM41.6957 56.5869C41.6957 54.9459 43.0329 53.6086 44.6739 53.6086C46.3149 53.6086 47.6522 54.9459 47.6522 56.5869C47.6522 58.2279 46.3149 59.5651 44.6739 59.5651C43.0329 59.5651 41.6957 58.2279 41.6957 56.5869Z" fill="#1F4D81"/>
<path d="M92.326 47.6521C87.4 47.6521 83.3912 51.6608 83.3912 56.5869C83.3912 61.5129 87.4 65.5217 92.326 65.5217C97.2521 65.5217 101.261 61.5129 101.261 56.5869C101.261 51.6608 97.2521 47.6521 92.326 47.6521ZM92.326 59.5651C90.682 59.5651 89.3478 58.2279 89.3478 56.5869C89.3478 54.9459 90.682 53.6086 92.326 53.6086C93.97 53.6086 95.3043 54.9459 95.3043 56.5869C95.3043 58.2279 93.97 59.5651 92.326 59.5651Z" fill="#1F4D81"/>
<path d="M68.5 83.3914C57.397 83.3914 46.8182 88.094 39.4768 96.2962C38.3808 97.5232 38.4851 99.4055 39.7091 100.501C40.9362 101.6 42.8184 101.493 43.9144 100.269C50.1271 93.3268 59.0887 89.3479 68.5 89.3479C77.9113 89.3479 86.8729 93.3268 93.0855 100.269C93.6722 100.927 94.4883 101.261 95.3043 101.261C96.0102 101.261 96.725 101.011 97.2908 100.501C98.5149 99.4055 98.6191 97.5232 97.5231 96.2962C90.1817 88.097 79.6059 83.3914 68.5 83.3914Z" fill="#1F4D81"/>
</svg>
