<svg width="54" height="15" viewBox="0 0 54 15" fill="none" xmlns="http://www.w3.org/2000/svg">
<path d="M27 0L23.8288 3.81716C17.9432 10.9017 9.21039 15 0 15L54 15C44.7896 15 36.0568 10.9017 30.1712 3.81716L27 0Z" fill="white"/>
</svg>
