<svg width="116" height="104" viewBox="0 0 116 104" fill="none" xmlns="http://www.w3.org/2000/svg">
<path d="M27.4716 14.1712C27.8308 14.0172 28.0361 13.504 27.8821 13.0935C27.4203 11.9132 26.086 11.9645 25.0084 12.0158C24.5978 12.0158 23.828 12.0671 23.6228 11.9132C23.6741 11.6566 24.2386 11.0921 24.5465 10.7842C25.3163 10.0144 26.2913 8.98809 25.8294 7.80779C25.3676 6.62748 24.0333 6.6788 22.9556 6.73012C22.5451 6.73012 21.7753 6.78144 21.5701 6.62748C21.6214 6.37089 22.1859 5.8064 22.4938 5.49849C23.2636 4.72873 24.2386 3.70238 23.7767 2.52207C23.2636 1.39309 21.9806 1.4444 20.9029 1.49572C20.4924 1.49572 19.6713 1.54704 19.5174 1.39309C19.3634 0.982546 18.9016 0.777276 18.5423 0.982546C18.1831 1.1365 17.9778 1.64968 18.1318 2.06022C18.5937 3.24052 19.9279 3.1892 21.0056 3.13789C21.4161 3.13789 22.1859 3.08657 22.3912 3.24052C22.2885 3.49711 21.724 4.0616 21.4161 4.36951C20.6464 5.13927 19.6713 6.16562 20.1332 7.34593C20.595 8.52623 21.9293 8.47492 23.007 8.4236C23.4175 8.4236 24.1873 8.37228 24.3925 8.52623C24.3412 8.78282 23.7767 9.34731 23.4688 9.65522C22.6991 10.425 21.724 11.4513 22.1859 12.6316C22.6477 13.8119 23.982 13.7606 25.0597 13.7093C25.4702 13.7093 26.2913 13.658 26.4452 13.8119C26.6505 14.1199 27.1124 14.3251 27.4716 14.1712Z" fill="#1892D9"/>
<path d="M16.8489 27.6164C17.0541 27.3598 16.9515 26.9493 16.6949 26.7953C15.9252 26.2308 15.0528 26.8466 14.3856 27.3085C14.129 27.5137 13.6159 27.8217 13.4106 27.8217C13.3593 27.6164 13.5132 27.0519 13.5646 26.6927C13.7698 25.8716 14.0264 24.8452 13.2566 24.2807C12.4869 23.7162 11.6145 24.3321 10.9474 24.7939C10.6908 24.9992 10.1776 25.3071 9.97232 25.3071C9.921 25.1018 10.075 24.5373 10.1263 24.1781C10.3315 23.357 10.5881 22.3307 9.81837 21.7662C9.0486 21.2017 8.1762 21.8175 7.50907 22.2794C7.25249 22.4846 6.68799 22.8438 6.53404 22.7925C6.27745 22.5873 5.91823 22.6899 5.71296 22.9465C5.50769 23.2031 5.61032 23.6136 5.86691 23.7676C6.63667 24.3321 7.50907 23.7162 8.1762 23.2544C8.43279 23.0491 8.94597 22.7412 9.15124 22.7412C9.20256 22.9465 9.0486 23.511 8.99728 23.8702C8.79201 24.6913 8.53543 25.7176 9.30519 26.2821C10.075 26.8466 10.9474 26.2308 11.6145 25.769C11.8711 25.5637 12.3842 25.2558 12.5895 25.2558C12.6408 25.461 12.4869 26.0255 12.4356 26.3848C12.2303 27.2058 11.9737 28.2322 12.7435 28.7967C13.5132 29.3612 14.3856 28.7454 15.0528 28.2835C15.3094 28.0782 15.8225 27.719 16.0278 27.7703C16.2844 27.9756 16.6436 27.9243 16.8489 27.6164Z" fill="#3AB54A"/>
<path d="M43.4826 19.8674C43.6879 20.124 44.0471 20.124 44.3037 19.8674C45.0221 19.2003 44.6629 18.2253 44.4063 17.4555C44.3037 17.1476 44.0984 16.5831 44.1497 16.3778C44.355 16.3265 44.8682 16.6344 45.1248 16.7371C45.8432 17.0963 46.7156 17.5581 47.4341 16.891C48.1525 16.2239 47.7933 15.2488 47.5367 14.4791C47.4341 14.1712 47.2288 13.6067 47.2801 13.4014C47.4854 13.3501 47.9986 13.658 48.2551 13.7606C48.9736 14.1199 49.846 14.5817 50.5644 13.9146C51.2829 13.2475 50.9237 12.2724 50.6671 11.5027C50.5644 11.1947 50.3592 10.6303 50.4105 10.425C50.6671 10.1684 50.6671 9.80917 50.5131 9.6039C50.3078 9.34731 49.9486 9.34731 49.692 9.6039C48.9736 10.271 49.3328 11.2461 49.5894 12.0158C49.692 12.3237 49.8973 12.8882 49.846 13.0935C49.6407 13.1448 49.1275 12.8369 48.871 12.7343C48.1525 12.3751 47.2801 11.9132 46.5617 12.5803C45.8432 13.2475 46.2024 14.2225 46.459 14.9923C46.5617 15.3002 46.7669 15.8647 46.7156 16.0699C46.5103 16.1212 45.9972 15.8133 45.7406 15.7107C45.0221 15.3515 44.1497 14.8896 43.4313 15.5567C42.7128 16.2239 43.0721 17.1989 43.3286 17.9687C43.4313 18.2766 43.6366 18.8411 43.5852 19.0463C43.3286 19.2516 43.2773 19.6108 43.4826 19.8674Z" fill="#FF9007"/>
<path d="M35.0153 19.2003C35.2206 19.0977 35.3232 18.8411 35.3232 18.5845C35.0667 13.4527 37.0167 9.96313 41.1735 7.91042C41.4814 7.75647 41.6353 7.39725 41.4814 7.03802C41.3274 6.73012 40.9682 6.57617 40.6603 6.73012C35.9904 9.03941 33.7837 13.0422 34.0403 18.6358C34.0403 18.995 34.3482 19.2516 34.7074 19.2003C34.8101 19.2516 34.9127 19.2516 35.0153 19.2003Z" fill="#5DBBE5"/>
<path d="M25.3676 24.1268C25.1624 24.1268 24.9571 23.9728 24.9058 23.7676C23.2636 19.3029 20.3898 17.1476 16.0791 17.3015C15.7712 17.3015 15.5146 17.045 15.5146 16.7371C15.5146 16.3778 15.7712 16.1212 16.0791 16.1212C20.903 15.9673 24.2386 18.3792 26.0348 23.3057C26.1374 23.6136 25.9834 23.9728 25.6755 24.0755C25.5729 24.1268 25.4703 24.1268 25.3676 24.1268Z" fill="#3AB54A"/>
<path d="M29.986 10.9895C30.2426 11.6053 30.961 11.9132 31.5769 11.6053C32.1927 11.2974 32.5006 10.5789 32.244 9.96313C31.9874 9.34732 31.2689 9.03941 30.6531 9.34732C30.0373 9.6039 29.7294 10.3224 29.986 10.9895Z" fill="#3AB54A"/>
<path d="M42.5899 12.4648C42.8559 11.808 42.5816 11.0773 41.9774 10.8327C41.3732 10.588 40.6678 10.9221 40.4019 11.5789C40.136 12.2356 40.4102 12.9663 41.0144 13.211C41.6186 13.4556 42.324 13.1216 42.5899 12.4648Z" fill="#FF9007"/>
<path d="M32.0178 5.02659C32.2199 4.52746 32.0004 3.96762 31.5275 3.77616C31.0546 3.5847 30.5075 3.83412 30.3054 4.33325C30.1033 4.83238 30.3228 5.39222 30.7956 5.58368C31.2685 5.77514 31.8157 5.52573 32.0178 5.02659Z" fill="#76D9FF"/>
<path d="M22.0624 33.6344C22.2645 33.1353 22.045 32.5754 21.5722 32.384C21.0993 32.1925 20.5522 32.4419 20.3501 32.9411C20.148 33.4402 20.3675 34 20.8403 34.1915C21.3132 34.383 21.8604 34.1335 22.0624 33.6344Z" fill="#76D9FF"/>
<path d="M31.7821 29.3099C31.936 29.7717 32.4492 29.9257 32.8597 29.7717C33.2703 29.5665 33.4756 29.0533 33.3216 28.6427C33.1676 28.1809 32.6545 28.0269 32.2439 28.1809C31.8334 28.3861 31.6281 28.848 31.7821 29.3099Z" fill="#F9AE2A"/>
<path d="M10.4341 18.1226C10.6394 18.6358 11.2039 18.8924 11.7171 18.6358C12.2303 18.4305 12.4868 17.8147 12.2816 17.3015C12.0763 16.7884 11.5118 16.5318 10.9986 16.7884C10.4855 17.045 10.2289 17.6095 10.4341 18.1226Z" fill="#FF9007"/>
<path d="M29.3189 18.4305C29.4729 18.8411 29.9347 19.0463 30.3453 18.8411C30.7558 18.6358 30.9611 18.1739 30.8071 17.7634C30.6532 17.3529 30.1913 17.1476 29.7808 17.3529C29.3703 17.5068 29.165 18.02 29.3189 18.4305Z" fill="#3AB54A"/>
<path d="M14.8475 8.7315C15.0527 9.24468 15.6172 9.50127 16.1304 9.24468C16.6436 9.03941 16.9002 8.4236 16.6949 7.91042C16.4896 7.39725 15.9251 7.14066 15.412 7.39725C14.8988 7.60252 14.6422 8.21833 14.8475 8.7315Z" fill="#76D9FF"/>
<path d="M7.25232 9.70654L7.04705 9.96313C6.99573 10.0658 6.8931 10.0658 6.79046 10.0144L6.48256 9.86049C6.27729 9.75786 6.07202 10.0144 6.17465 10.2197L6.3286 10.5276C6.37992 10.6303 6.37992 10.7329 6.3286 10.7842L6.12333 11.0408C5.96938 11.1947 6.12333 11.4513 6.3286 11.4L6.68783 11.2974C6.79046 11.2461 6.8931 11.2974 6.94441 11.4L7.09837 11.7079C7.201 11.9132 7.50891 11.8106 7.50891 11.6053L7.56023 11.2461C7.56023 11.1434 7.66286 11.0408 7.71418 11.0408L8.0734 10.9382C8.27867 10.8868 8.32999 10.5789 8.12472 10.4763L7.81681 10.3223C7.71418 10.271 7.66286 10.1684 7.66286 10.0658L7.71418 9.70654C7.66286 9.6039 7.40627 9.50127 7.25232 9.70654Z" fill="#3AB54A"/>
<path d="M15.0527 19.9701L15.1553 20.3293C15.2066 20.4319 15.1553 20.5346 15.0527 20.5859L14.7961 20.7911C14.6421 20.9451 14.6934 21.2017 14.95 21.2017H15.3092C15.4119 21.2017 15.5145 21.253 15.5145 21.3556L15.6172 21.7149C15.6685 21.9201 15.9764 21.9201 16.0277 21.7149L16.1303 21.3556C16.1816 21.253 16.233 21.2017 16.3356 21.2017H16.6948C16.9001 21.2017 17.0027 20.8938 16.7975 20.7911L16.4896 20.5859C16.3869 20.5346 16.3869 20.4319 16.3869 20.3293L16.4896 19.9701C16.5409 19.7648 16.3356 19.5595 16.1303 19.7135L15.8737 19.9187C15.7711 19.9701 15.6685 19.9701 15.6172 19.9187L15.3092 19.7135C15.2066 19.5595 15.0013 19.7648 15.0527 19.9701Z" fill="#76D9FF"/>
<path d="M35.8363 4.72873L36.0416 4.6261C36.0929 4.6261 36.1442 4.6261 36.1955 4.67741L36.3495 4.88268C36.4521 4.98532 36.6061 4.934 36.6061 4.78005V4.52346C36.6061 4.47214 36.6574 4.42083 36.7087 4.36951L36.914 4.26687C37.0679 4.21556 37.0679 4.01028 36.914 3.95897L36.7087 3.90765C36.6574 3.90765 36.6061 3.85633 36.6061 3.7537V3.49711C36.6061 3.34316 36.4008 3.29184 36.3495 3.44579L36.1955 3.65106C36.1442 3.70238 36.0929 3.7537 36.0416 3.70238L35.8363 3.65106C35.6824 3.59974 35.5797 3.80501 35.6824 3.90765L35.785 4.11292C35.8363 4.16424 35.8363 4.21556 35.785 4.31819L35.631 4.52346C35.5797 4.6261 35.7337 4.78005 35.8363 4.72873Z" fill="#76D9FF"/>
<g filter="url(#filter0_d)">
<path d="M85.8711 32.081C94.0819 37.572 99.9321 42.8064 101.112 52.3002C102.806 65.848 101.831 71.0311 94.2358 79.4472C86.179 88.4277 75.2483 92.0713 61.8544 94.1753C46.6131 96.5872 28.498 92.6358 21.6727 87.6067C14.0777 82.0644 9.56179 76.676 6.32878 68.2086C4.58399 63.5387 3.50632 46.8092 10.075 38.9063C17.7726 29.6178 32.9113 26.7953 47.3315 24.5373C62.0084 22.228 75.8128 25.3584 85.8711 32.081Z" fill="url(#paint0_linear)"/>
</g>
<path d="M85.8711 32.081C94.0819 37.572 99.9321 42.8064 101.112 52.3002C102.806 65.848 101.831 71.0311 94.2358 79.4472C86.179 88.4277 75.2483 92.0713 61.8544 94.1753C46.6131 96.5872 28.498 92.6358 21.6727 87.6067C14.0777 82.0644 9.56179 76.676 6.32878 68.2086C4.58399 63.5387 3.50632 46.8092 10.075 38.9063C17.7726 29.6178 32.9113 26.7953 47.3315 24.5373C62.0084 22.228 75.8128 25.3584 85.8711 32.081Z" fill="url(#paint1_linear)"/>
<path d="M82.2275 38.3931C90.233 41.8314 92.5423 49.0158 93.0042 52.7107C94.0305 61.1781 93.1581 66.7204 88.8988 72.1087C82.4841 80.2169 66.9348 79.8577 55.3371 81.6538C42.1998 83.6552 28.5493 82.9368 21.5701 77.0352C19.0042 74.8799 18.5423 72.7246 15.3606 66.1046C11.2039 57.3806 14.283 43.9354 18.1318 38.6497C24.6491 29.6691 36.1443 27.8217 53.0278 30.9007C64.4203 33.0047 65.2927 25.1018 64.3176 19.2003C64.0097 17.1989 64.6769 15.762 64.6769 15.762C64.6769 15.762 66.7296 18.02 67.3454 19.3542C71.1429 27.5651 73.914 34.8522 82.2275 38.3931Z" fill="white"/>
<path fill-rule="evenodd" clip-rule="evenodd" d="M87.9751 70.8771C87.4619 71.4929 86.8974 71.8008 86.2303 71.9548H86.1789C86.1276 71.9548 86.0763 71.9548 85.9737 71.9548C85.1013 71.9548 84.5368 71.6469 83.8697 71.1337C83.2538 70.6205 82.6894 69.7995 82.5867 68.7731C82.4841 68.0033 82.4328 67.6441 82.3814 67.4388C82.3814 67.4388 82.3814 67.4388 82.3814 67.3875C82.2275 67.5928 81.8683 68.2599 81.5091 68.9784C81.0985 69.7995 80.6366 70.6718 80.3287 71.339C80.2261 71.5956 80.1748 71.6982 80.1235 71.8522C80.0722 72.0061 79.9695 72.2114 79.8156 72.468C79.405 73.0838 79.0458 73.289 78.4813 73.6483C77.9681 73.9562 77.3523 74.2641 76.4799 74.3154H76.4286C75.7615 74.3667 74.8891 73.9562 74.4785 73.3917C74.068 72.8785 74.0167 72.3653 73.9654 71.9548C73.9654 70.6718 74.4785 69.6968 74.9917 68.7731C75.5049 67.9007 75.9154 67.1309 76.1207 66.5664C76.172 66.4638 76.172 66.4125 76.2233 66.3099C76.0694 66.2585 75.9154 66.2072 75.7102 66.1559C75.197 65.9506 74.6325 65.7454 74.0167 65.1809C73.5035 64.719 73.093 64.1545 72.7851 63.59V63.6413C72.6311 65.9506 72.6311 69.7995 72.6311 71.0311C72.6311 71.2363 72.6311 71.2877 72.6311 71.4929C72.5798 71.7495 72.5798 72.1601 72.4258 72.6732C72.2719 73.1351 71.964 73.8022 71.3482 74.3154C70.9376 74.6233 70.3218 74.8286 69.7573 74.8799C69.7573 74.8799 69.7573 74.8799 69.706 74.8799C69.5007 74.8799 69.2955 74.8799 69.1415 74.8286C68.0638 74.7259 67.2941 73.8535 67.0375 73.2377C66.7296 72.5706 66.7296 72.0574 66.6783 71.6469C66.6783 71.5956 66.6783 71.4929 66.6783 71.4416C66.6783 70.1074 66.6783 67.2849 66.7296 66.6178C66.7296 66.4125 66.7296 66.2585 66.7296 66.1046C66.7296 65.848 66.6783 65.694 66.6783 65.5914C66.6269 65.5914 66.5756 65.5401 66.473 65.5401C66.2677 65.4888 65.8572 65.4375 65.19 65.4375C65.1387 65.4375 65.0874 65.4375 64.9848 65.4375C64.8821 65.4375 64.7795 65.4375 64.6256 65.4375C64.2663 65.4375 63.8558 65.4375 63.4452 65.4888C62.6755 65.4888 61.8031 65.5914 61.6491 65.6427C61.2386 65.848 61.0846 66.0533 61.0333 66.4125C60.8794 67.1823 60.6741 69.4915 60.3149 71.2363C60.1609 72.0061 59.9043 72.7246 59.4425 73.3917C59.0319 74.0075 58.3135 74.6233 57.2871 74.7259C57.2871 74.7259 57.2358 74.7259 57.1845 74.7259C56.8766 74.7259 56.5174 74.7259 56.1068 74.572C55.6963 74.418 55.2857 74.1101 55.0292 73.7509C54.4647 72.9811 54.4133 72.2627 54.362 71.3903C54.362 71.2877 54.362 71.185 54.362 71.0824C54.362 71.0311 54.362 71.0311 54.362 70.9798V71.0311C54.2081 72.0061 53.7975 72.8272 53.1817 73.3404C52.5659 73.8535 51.9501 74.1101 51.283 74.1101C51.2317 74.1101 51.1803 74.1101 51.0777 74.1101C50.1027 74.0075 49.6921 73.597 49.1276 73.0838C48.6145 72.5706 48.2552 71.7495 48.2039 70.7745C48.2039 70.5692 48.2039 70.4153 48.2039 70.2613C48.2552 69.5429 48.3066 69.1323 48.3066 68.9271C48.1526 69.081 47.6907 69.5942 47.2289 70.1587C46.6644 70.7745 46.0486 71.5442 45.5867 72.1087C45.3301 72.4166 45.2275 72.5193 45.1249 72.7246C44.9709 72.8785 44.817 73.1351 44.5604 73.3404C44.1498 73.6996 43.7906 73.9049 43.2774 74.1101C42.8156 74.3154 42.2511 74.4694 41.6353 74.4694C41.3787 74.4694 41.1221 74.4694 40.8142 74.418C40.6602 74.3667 40.455 74.3154 40.301 74.2641C40.301 74.3154 40.301 74.3154 40.2497 74.3667C39.9418 75.1878 38.8128 76.0089 37.6838 75.9576H37.6325C36.4522 76.0089 35.4771 75.1878 35.1692 74.572C34.81 73.9049 34.7074 73.3917 34.6561 73.0325C34.3995 71.6982 33.9376 68.9271 33.835 68.3112C33.7837 67.952 33.7324 67.6441 33.681 67.4902C33.6297 67.3875 33.6297 67.3362 33.5784 67.2849C33.5271 67.2336 33.3731 67.2336 32.9626 67.2336C32.706 67.2336 32.3468 67.2849 31.8849 67.3875C31.3204 67.4902 30.5507 67.6441 29.8835 67.7981C29.319 67.9007 28.7545 68.0547 28.6006 68.106C28.2414 68.3626 28.1387 68.5678 28.1387 68.9271C28.1387 69.0297 28.1387 69.2863 28.1387 69.4915C28.1387 70.21 28.2414 71.2363 28.2927 72.2114C28.2927 72.7246 28.2927 73.2377 28.2927 73.7509C28.2414 74.572 28.1387 75.2904 27.8308 76.0089C27.5229 76.676 26.8558 77.4971 25.8294 77.651C25.6755 77.651 25.5215 77.7024 25.3676 77.7024C25.3163 77.7024 25.3163 77.7024 25.2649 77.7024C24.5978 77.7024 23.6741 77.3431 23.2636 76.676C22.8017 76.0602 22.5964 75.3418 22.4425 74.5207C22.3912 74.2128 22.3398 73.8022 22.2885 73.1351C22.2372 72.468 22.1346 71.6469 22.0833 70.8258C21.9293 69.081 21.7753 67.1823 21.6214 66.1559C21.5701 65.7967 21.2109 64.0519 20.9029 62.3071C20.5437 60.5623 20.1845 58.8175 20.0819 58.2017C20.0306 57.8425 19.9792 57.4832 19.9279 57.124C19.9279 56.5082 19.9792 55.8411 20.2358 55.1739C20.4924 54.5068 21.2109 53.7884 22.1346 53.5831C22.2885 53.5318 22.4938 53.5318 22.6477 53.5318C23.6228 53.4805 24.3925 53.9936 24.8031 54.5068C25.2649 55.02 25.5215 55.6358 25.6755 56.3029C25.9321 57.278 26.5479 59.6899 26.6505 60.1004C26.7532 60.4597 26.8558 60.9728 27.0097 61.4347C27.1124 61.7426 27.215 61.9992 27.3177 62.1531C27.5229 62.1531 27.7795 62.2044 28.0874 62.2044C29.2164 62.1531 30.8586 61.7939 31.9362 61.332C32.1415 61.2294 32.1415 61.2294 32.2441 61.0755C32.3468 60.9215 32.3981 60.6136 32.552 60.1517C32.6034 59.9465 32.706 59.1767 32.706 57.5859C32.706 56.8674 32.552 55.2253 32.8086 53.7884C32.9113 53.2752 33.0652 52.762 33.5784 52.1975C33.8863 51.8896 34.2968 51.5817 34.81 51.4791C34.964 51.4791 35.1179 51.4278 35.3232 51.4278C35.7337 51.4278 36.3496 51.5304 36.7601 51.8383C37.7864 52.5567 37.9917 53.4291 38.197 54.1476C38.3509 54.9173 38.4536 55.6358 38.5049 56.3029C38.6588 57.6372 39.1207 61.5886 39.4286 64.4111C39.5826 65.7967 39.8905 67.7981 40.1471 69.3889C40.3523 69.1836 40.5063 68.9271 40.7115 68.7218C41.43 68.0033 41.9945 67.2849 42.3537 66.7717C42.405 66.7204 42.4563 66.6178 42.5077 66.5664C42.405 66.4638 42.2511 66.4125 42.0971 66.3099C41.6353 66.002 41.1221 65.694 40.6602 64.9756C39.9931 64.0006 39.6852 62.9742 39.6339 61.9479C39.5826 60.2031 40.3523 58.8175 41.1221 57.6372C41.43 57.1753 41.8919 56.6621 42.6616 55.995C43.4314 55.3792 44.4064 54.7121 45.638 54.2502C46.4591 53.9423 47.2289 53.7884 48.05 53.7884C49.1276 53.737 50.154 53.9423 51.2317 54.2502C52.0527 54.5068 52.9251 54.9687 53.7462 55.7897C54.1568 56.2003 54.5673 56.7648 54.8752 57.3806C54.8239 56.149 54.8239 55.1226 54.8239 54.7121C54.8239 54.3015 54.8239 53.9423 54.8752 53.5318C54.8239 53.5318 54.8239 53.5318 54.7726 53.5318C54.362 53.5318 53.9002 53.4805 53.4383 53.1726C52.9251 52.916 52.5146 52.1975 52.4633 51.5817C52.4633 51.5817 52.4633 51.5817 52.4633 51.4791C52.4633 50.8633 52.6172 50.504 52.7712 50.1448C52.9251 49.8369 53.1304 49.529 53.2844 49.2211C52.9251 49.1185 52.5146 48.9132 52.1041 48.6566C51.5396 48.2974 51.0264 47.7329 50.6158 47.0658C50.5132 46.8605 50.4106 46.6552 50.3079 46.5013C50.154 46.9631 50 47.3737 49.7948 47.7842C49.5895 48.0921 49.2303 48.7079 48.6145 49.2724C47.9986 49.8369 47.0236 50.4014 45.8433 50.5554C45.792 50.5554 45.7407 50.5554 45.5867 50.6067C45.4841 50.6067 45.3814 50.6067 45.2275 50.658C45.1249 50.658 45.0222 50.658 44.9196 50.658C44.9196 50.8119 44.9196 50.9146 44.9196 51.0685V51.1198C44.9196 51.2225 44.9196 51.3764 44.9196 51.5304C44.9196 51.8896 44.9196 52.3002 44.817 52.8133C44.7143 53.2752 44.4577 54.045 43.5853 54.5068C43.2261 54.7121 42.8669 54.7634 42.5077 54.8147C41.8919 54.8147 41.2247 54.6094 40.6602 54.1476C40.1471 53.6857 39.7878 52.9673 39.6852 52.2488C39.5312 51.1198 39.172 48.554 39.0181 47.1684C39.0181 47.0658 39.0181 46.9631 38.9667 46.8092C38.2996 47.9895 37.5299 48.8106 37.0167 49.2211C35.6824 50.4527 34.0916 51.1198 33.0139 51.4791C33.0139 51.5817 33.0139 51.6843 32.9626 51.8383C32.9113 51.9922 32.9626 52.5054 32.6034 53.1726C32.2441 53.8397 31.3204 54.3529 30.5507 54.3529C30.4993 54.3529 30.448 54.3529 30.3454 54.3529C30.3454 54.3529 30.3454 54.3529 30.2941 54.3529C29.5243 54.3529 28.8059 54.045 28.3953 53.6857C27.9848 53.2752 27.7795 52.916 27.6256 52.6594C27.5742 52.5054 27.5229 52.4028 27.4716 52.2488L27.4203 52.0949C26.5479 51.9922 25.5215 51.7357 24.5465 51.3764C23.1609 50.8633 22.3398 50.3501 21.6727 49.8369C21.0569 49.3237 20.6977 48.8619 20.5437 48.6566C19.5174 47.5789 19.0042 46.1934 18.9529 44.7565C18.9529 44.3972 18.9529 44.038 19.0042 43.7301C19.1582 42.7038 19.5174 41.8314 19.9792 41.1642C20.1332 40.959 20.2358 40.7537 20.3898 40.5997C20.3385 40.3945 20.3385 40.1892 20.2871 39.9326C20.2358 39.0089 20.6464 37.8799 21.6214 36.8536C22.7504 35.6219 23.9307 35.0574 24.7005 34.6982C25.3676 34.3903 25.9321 34.2877 26.3426 34.185V34.1337V34.0311C26.3939 33.7745 26.4966 33.5692 26.6505 33.364C27.0611 32.7481 27.6769 32.1323 28.6519 32.0297C28.7545 32.0297 28.8572 32.0297 28.8572 32.0297C29.473 31.9784 30.1401 32.1837 30.602 32.5942C30.9612 32.9021 31.2178 33.2613 31.3717 33.6719C31.4231 33.6719 31.5257 33.7232 31.6283 33.7232L32.0902 33.8258C34.5021 34.2877 35.3232 34.8008 36.8627 35.7759C37.8891 36.443 38.5049 37.3154 38.9667 38.1878C39.172 38.5984 39.326 38.9576 39.4799 39.3168C39.5826 39.2142 39.6852 39.1115 39.7365 39.0602C40.1984 38.7523 40.6602 38.6497 41.0195 38.6497C41.5839 38.6497 41.9432 38.7523 42.0458 38.8036C42.1484 38.701 42.405 38.547 42.6103 38.4444C42.9182 38.2904 43.2261 38.1365 43.6367 37.9825C44.0985 37.8286 44.5604 37.726 45.0222 37.726C45.8946 37.726 46.5618 37.8286 47.1262 38.1365C47.3828 38.2904 48.2039 38.6497 48.9737 39.5221C48.9737 39.4707 48.9737 39.4194 49.025 39.4194C49.2303 38.9063 49.6408 38.4444 50 38.1878C50.4106 37.9312 50.7698 37.8286 51.0777 37.8286C51.6935 37.8286 52.0527 37.9825 52.1554 38.0339C52.6685 38.2391 53.1304 38.7523 53.3357 39.1115C53.5409 39.4708 53.6436 39.7787 53.7462 40.0866C53.9515 40.6511 54.1054 41.2156 54.362 42.1906C54.4133 41.8827 54.4133 41.5748 54.4647 41.1642C54.516 40.4971 54.5673 39.676 54.8752 38.8549C54.9778 38.547 55.1318 38.2391 55.5937 37.7773C55.9529 37.4694 56.5174 37.2641 57.0305 37.2128C57.6977 37.2128 58.2109 37.4694 58.5188 37.6746C58.878 37.9312 59.0319 38.1365 59.2885 38.5984C59.4938 39.0602 59.5451 39.4707 59.5964 39.7787C59.8017 39.4707 60.1096 38.9063 61.0333 38.7523C61.0846 38.7523 61.4439 38.547 61.957 38.1878C62.3163 37.9825 63.086 37.3154 64.369 37.1101C64.5229 37.1101 64.6769 37.0588 64.8308 37.0588C66.3703 37.0075 67.3967 37.7773 67.9099 38.1365C68.0638 38.0339 68.2691 37.8799 68.4744 37.726C69.2955 37.2128 70.1679 36.9562 70.9376 36.9562C71.81 36.9562 72.4771 37.1101 73.1443 37.418C73.8114 37.7773 74.1706 38.2391 74.5299 38.7523C74.7864 39.1628 75.043 39.6247 75.197 40.1379C75.4023 39.7273 75.6075 39.4194 75.8128 39.1115C76.2233 38.547 76.6339 38.1878 76.9931 37.8799C77.9168 37.1101 78.9945 36.8022 80.1235 36.7509C80.688 36.7509 81.2525 36.8022 81.8683 36.9049C82.4841 37.0588 83.0999 37.2128 83.6644 37.572C84.2289 37.9312 84.6394 38.4444 84.9473 38.9063C85.3579 39.4708 85.5631 39.8813 85.7684 40.2405C85.9737 40.6511 86.0763 41.0103 86.1276 41.2155C86.179 41.4208 86.2303 41.5748 86.2816 41.8314C86.3842 42.1393 86.3842 42.4472 86.4355 42.7038C86.4355 43.8327 86.1276 45.0644 85.5631 46.296C84.9473 47.5276 84.1262 48.8106 82.7407 49.6316C82.5354 49.7343 81.6117 50.2988 80.1748 50.3501C79.7129 50.3501 79.2511 50.3501 78.6866 50.1961C77.6602 49.9395 76.326 49.4264 75.3509 48.2974C74.9917 48.7592 74.3759 49.1185 73.914 49.2211C73.7601 49.2211 73.6575 49.2724 73.5035 49.2724C72.0666 49.2724 71.0403 48.2461 70.7324 46.9118C70.6297 46.4499 70.5271 45.6802 70.4244 44.8591C70.3731 45.2696 70.2705 45.6802 70.2192 46.0394C70.1165 46.4499 70.0652 46.7578 69.9626 47.1684C69.8086 47.5789 69.6547 47.9895 69.2955 48.4513C68.9362 48.9645 68.2178 49.375 67.6533 49.4264C67.5507 49.4264 67.3967 49.4777 67.2941 49.4777C66.6269 49.4777 65.9598 49.2211 65.498 48.7079C65.0361 48.2461 64.7795 47.6302 64.6769 46.9631C64.5742 46.296 64.5742 45.5262 64.5229 44.7565C64.5229 44.6025 64.5229 44.4999 64.5229 44.3459C64.5229 44.4999 64.4716 44.7051 64.4203 44.8591C64.3176 45.5775 64.215 46.2447 64.0611 46.7579C63.9071 47.2197 63.8045 47.6816 63.5479 48.1434C63.2913 48.554 62.9834 49.0671 62.3163 49.375C62.0084 49.529 61.7004 49.5803 61.3925 49.5803C60.2122 49.5803 59.5451 48.9645 59.1346 48.3487C59.1346 48.2974 59.0832 48.2461 59.0832 48.2461C59.0319 48.3487 59.0319 48.5026 58.9806 48.6053C58.7753 49.2211 58.5188 49.8369 58.2622 50.3501C58.9806 50.5554 59.5451 51.0172 59.853 51.4791C60.2636 52.1462 60.4688 52.8133 60.5201 53.5318C60.5715 54.5068 60.7767 57.0214 60.7767 57.4319C60.7767 57.7911 60.828 58.3043 60.8794 58.8175C60.9307 59.1254 60.982 59.382 61.0333 59.5359C61.4952 59.6386 62.4189 59.7925 63.3426 59.7412C64.1637 59.7412 65.0361 59.5873 65.7545 59.4333C65.9598 59.382 65.9598 59.3307 66.1138 59.1767C66.2164 59.0228 66.3704 58.7149 66.5756 58.3043C66.6783 58.099 66.8835 57.3806 67.1401 55.7897C67.1914 55.3792 67.2941 54.6608 67.448 53.891C67.602 53.1212 67.7559 52.3002 68.2178 51.4791C68.5257 50.9659 69.1928 50.2474 70.2192 50.1448C70.2705 50.1448 70.3218 50.1448 70.3218 50.1448C70.7837 50.0935 71.6047 50.2474 72.1692 50.7606C73.093 51.6843 73.1443 52.6594 73.1956 53.4291C73.1956 54.1476 73.1443 54.866 73.093 55.4818C73.0416 55.7898 73.0416 56.3029 72.9903 56.8674C73.1443 56.5595 73.3495 56.2516 73.6061 55.9437C74.1706 55.1739 74.9917 54.3015 76.0694 53.6344C77.4036 52.8133 78.7892 52.4541 80.2261 52.4028C80.6367 52.4028 81.0985 52.4028 81.5091 52.4028C82.4328 52.4541 83.4591 52.762 84.5368 53.4805C85.6145 54.1989 86.6408 55.4305 86.8974 57.1753C87.1027 58.5609 87.3079 59.1767 87.5132 61.2294C87.9751 65.0269 88.3856 66.5664 88.4882 68.106C88.4882 68.1573 88.4882 68.2086 88.4882 68.3112C88.7961 69.3889 88.4882 70.2613 87.9751 70.8771Z" fill="white"/>
<path fill-rule="evenodd" clip-rule="evenodd" d="M28.498 36.1864C26.9585 36.4943 24.8545 37.0588 24.2387 37.4694C23.6742 37.9312 22.6478 39.2655 22.5452 40.1379C22.4939 41.0103 21.9807 43.4222 22.1347 44.0893C22.3399 44.7051 23.5715 46.8605 24.29 47.425C25.0084 47.9895 28.3954 48.6566 28.8573 48.7079C29.3191 48.7592 32.9114 47.7842 33.7838 47.2197C34.6562 46.6552 36.0417 44.2946 36.4523 43.6788C36.8628 43.063 36.9654 40.805 36.1444 39.6247C35.3746 38.4444 34.8614 36.8536 33.4758 36.3917C32.1416 35.9298 30.0376 35.9298 28.498 36.1864Z" fill="#FFD200"/>
<path fill-rule="evenodd" clip-rule="evenodd" d="M50.5132 57.3806C49.8974 57.0727 47.6394 56.5595 46.5617 57.1753C45.4841 57.8425 44.0472 58.4583 43.4827 59.4333C42.9182 60.4083 42.4563 61.8965 42.9695 62.5637C43.4827 63.2308 45.3301 64.5137 46.2025 64.719C47.1262 64.9243 50.2566 64.4111 50.2566 64.4111C50.2566 64.4111 51.1803 63.0255 51.4369 62.5637C51.7448 62.0505 52.1554 60.357 52.1041 59.5873C52.1554 58.9201 51.129 57.6885 50.5132 57.3806Z" fill="#ED1C24"/>
<path fill-rule="evenodd" clip-rule="evenodd" d="M82.8945 56.0977C82.2787 55.7897 80.0208 55.2766 78.9431 55.8924C77.8654 56.5595 76.4285 57.1753 75.864 58.1504C75.2995 59.1254 74.8377 60.6136 75.3509 61.2807C75.9154 61.9479 77.7115 63.2308 78.5839 63.4361C79.5076 63.6413 82.638 63.1282 82.638 63.1282C82.638 63.1282 83.5617 61.7426 83.8183 61.2807C84.1262 60.7676 84.5367 59.0741 84.4854 58.3043C84.5367 57.5859 83.5104 56.4056 82.8945 56.0977Z" fill="#FFD200"/>
<path fill-rule="evenodd" clip-rule="evenodd" d="M80.9444 38.8036C80.2773 38.8549 78.0706 39.6247 77.5061 40.7537C76.9416 41.8827 76.0692 43.1656 76.1719 44.2946C76.2232 45.4236 76.6337 46.9631 77.4548 47.2197C78.2759 47.4763 80.4826 47.5789 81.355 47.271C82.2274 46.9631 84.588 44.8591 84.588 44.8591C84.588 44.8591 84.588 43.2169 84.588 42.6524C84.5366 42.0879 84.0235 40.3945 83.5616 39.7787C83.0998 39.1628 81.6115 38.701 80.9444 38.8036Z" fill="#6DCFF6"/>
<path fill-rule="evenodd" clip-rule="evenodd" d="M42.251 41.1129C41.8918 41.5235 41.0194 43.2169 41.276 44.192C41.5839 45.167 41.7892 46.4499 42.4563 47.0658C43.1234 47.7329 44.2524 48.4 44.8682 48.0921C45.484 47.7842 46.9209 46.6039 47.2802 45.9368C47.6394 45.2696 47.8447 42.6524 47.8447 42.6524C47.8447 42.6524 46.9209 41.6774 46.613 41.3182C46.2538 41.0103 45.0222 40.2918 44.4064 40.1892C43.7906 40.1379 42.6103 40.7024 42.251 41.1129Z" fill="#BFD730"/>
<path opacity="0.3" d="M40.4038 46.9631C40.5577 48.2974 40.8656 50.9659 41.0196 52.0436C41.1735 53.0699 41.8407 53.5318 42.4565 53.4805C42.6104 53.4805 42.8157 53.4291 42.9183 53.3778C43.5855 53.0186 43.5341 52.0436 43.4828 51.3764V51.1198C43.4828 50.4014 43.4828 49.7856 43.5341 49.5803C43.5854 49.375 43.7394 49.3237 43.996 49.2724C44.0986 49.2724 44.2526 49.2724 44.3552 49.2724C44.6631 49.2724 44.971 49.3237 45.2276 49.2724H45.3302C45.3816 49.2724 45.4842 49.2724 45.5355 49.2724C47.2803 49.0671 48.1014 47.7842 48.5119 47.1171C48.9225 46.4499 49.1791 45.321 49.2817 44.0893C49.333 43.063 49.0764 41.8827 48.5633 40.9076C47.9474 39.8813 46.9211 39.3168 46.7158 39.2142C46.4079 39.0602 45.8947 38.9063 45.2276 38.9576C44.8684 38.9576 44.5605 39.0089 44.3039 39.1115C43.4315 39.4194 43.2262 39.5734 43.021 39.7787C43.021 39.7787 42.6617 40.0352 42.2512 40.0352C42.1486 40.0352 42.0972 40.0352 41.9946 40.0352L41.8407 39.9839C41.4814 39.8813 40.9683 39.83 40.6603 40.0866C40.4038 40.2918 40.0959 40.5997 39.9932 42.0366C39.8906 43.6788 40.0959 44.9617 40.2498 45.9881C40.3524 46.3473 40.4038 46.6552 40.4038 46.9631ZM43.1236 42.7038C43.6881 41.78 44.1499 41.6261 44.5092 41.6261C44.5605 41.6261 44.6118 41.6261 44.6631 41.6261C45.3302 41.6261 46.1513 42.5498 46.254 43.8327C46.3566 45.321 46.0487 45.8854 45.8947 46.0907C45.8434 46.1934 45.4842 46.8092 44.8171 46.8092C44.2526 46.8092 43.996 46.6039 43.7394 46.2447C42.7131 45.1157 42.7644 43.3196 43.1236 42.7038ZM57.9031 48.4513C58.4676 46.7065 58.5702 43.6788 58.6215 42.4985C58.6215 42.4472 58.6215 41.1129 58.5702 40.3945V40.2405C58.5189 39.8813 58.5189 39.6247 58.3649 39.2142C58.2623 38.9576 57.8517 38.5983 57.3899 38.5983C57.1846 38.5983 56.9793 38.701 56.7741 38.8549C56.3635 39.1628 56.2609 40.0352 56.1069 41.3182L56.0556 41.6774C55.799 44.5512 55.7477 44.9104 54.9266 45.0644C54.8753 45.0644 54.824 45.0644 54.7727 45.0644C54.6187 45.0644 54.5161 45.0644 54.4648 45.0644C54.1056 44.9104 53.7463 44.192 53.4897 43.1656C53.4897 43.063 53.4384 42.9603 53.4384 42.909C53.1305 41.5748 52.9253 41.1129 52.72 40.4971C52.5147 39.8813 52.3608 39.4194 51.8476 39.2142C51.6423 39.1115 51.2318 39.0602 50.9752 39.2142C50.462 39.5221 50.3081 40.0866 50.4107 41.1129C50.462 42.2419 50.7699 43.3709 50.9752 44.192V44.2946C51.3857 46.0394 51.9502 47.0658 52.7713 47.6302C53.4384 48.0921 53.9003 48.0921 54.1569 48.0921H54.2595C54.4648 48.0921 54.6701 48.1434 54.824 48.2461C54.9266 48.3487 54.978 48.4 54.9266 48.6053C54.8753 48.7592 54.8753 48.8619 54.824 48.9645C54.7727 49.2724 54.7214 49.2724 54.2595 49.9909C53.7977 50.7093 53.5924 51.2225 53.6437 51.5304C53.695 51.9922 54.0542 52.2488 54.5674 52.2488C54.8753 52.2488 55.1832 52.1462 55.4398 51.9409C56.5688 51.2738 57.3386 50.1448 57.9031 48.4513ZM73.8115 48.1434C74.6839 47.9895 74.7866 47.0658 74.7352 46.3473C74.7352 45.5262 74.6326 44.5512 74.53 43.6275C74.4273 42.7551 74.2734 41.6261 74.1707 40.959C74.0168 40.1379 73.3497 39.1115 72.7338 38.7523C72.4259 38.5983 71.9128 38.4444 71.2456 38.4444C70.6298 38.4444 70.014 38.6497 69.5008 39.0089C69.3469 39.1115 69.1929 39.2142 69.0903 39.3168C68.7824 39.5221 68.4232 39.83 68.2179 39.83C67.9613 39.83 67.756 39.676 67.3455 39.3681C66.8323 38.9576 65.9086 38.4444 64.8823 38.5983C64.1638 38.701 63.7533 39.0089 63.2914 39.2655C63.1888 39.3168 63.0861 39.4194 62.9835 39.4707C62.9322 39.5221 62.8296 39.5734 62.7269 39.6247C62.419 39.83 62.0085 40.0866 61.5979 40.1892C61.1361 40.2405 60.8282 40.9076 60.6229 42.3959C60.5716 42.7038 60.4689 44.1406 60.4176 45.167C60.3663 45.6802 60.3663 46.0394 60.3663 46.142C60.315 46.7065 60.315 47.5276 60.5716 47.9895C60.7768 48.2974 61.1361 48.6053 61.5979 48.6053C61.7519 48.6053 61.8545 48.554 62.0085 48.5026C62.4703 48.2974 62.7782 47.7842 63.0348 46.7579C63.1375 46.3986 63.2401 45.8341 63.3427 45.167C63.4454 44.4486 63.5993 43.6275 63.702 43.3196C64.1638 41.934 64.6257 41.6261 64.8309 41.5748C65.3441 41.4208 65.7547 41.8827 65.9599 42.8064C66.1139 43.5248 66.1139 44.5512 66.1652 45.4749C66.1652 46.142 66.2165 46.7578 66.2678 47.1684C66.3705 48.0921 66.9863 48.5026 67.5508 48.5026C67.6021 48.5026 67.6534 48.5026 67.7047 48.5026C68.4745 48.3487 68.6798 47.8868 68.9877 47.0658C69.0903 46.7065 69.2443 46.0394 69.3469 45.2696C69.5008 44.3972 69.6548 43.3709 69.8601 43.0117C70.1167 42.4985 70.5272 41.9853 70.9377 41.934C71.5022 41.9853 71.8101 43.063 71.8615 43.4735L71.9641 44.192C72.118 45.321 72.272 46.5526 72.3746 47.0144C72.4773 47.8355 73.2983 48.2974 73.8115 48.1434ZM79.3538 49.1698C79.713 49.2724 80.0209 49.3237 80.3802 49.2724C81.3552 49.2211 82.125 48.8106 82.2789 48.7079C84.5369 47.3737 85.6146 43.6788 85.2553 42.3959C85.1527 42.0879 85.1014 41.8827 85.0501 41.6774C84.8961 41.1129 84.8448 40.8563 84.075 39.7273C83.5105 38.8549 82.9974 38.4957 81.8171 38.2391C80.4315 37.9312 78.9433 38.1878 78.1222 38.9063C77.3524 39.5734 76.9419 39.9326 76.2234 41.78C75.505 43.4735 75.505 45.8341 76.1721 47.0144C76.9932 48.4 78.1735 48.8619 79.3538 49.1698ZM79.5078 41.5748C80.0723 40.959 80.7394 40.9076 80.996 40.8563C81.1499 40.8563 81.2013 40.8563 81.2526 40.8563C81.8171 40.959 82.4842 41.3695 82.5355 43.6788C82.5355 44.0893 82.3302 45.2183 81.5605 45.9368C80.8933 46.5526 80.4315 46.7579 79.6617 46.5013C78.6867 46.1934 78.5327 44.9617 78.5327 44.9617C78.2762 43.7814 78.892 42.2932 79.5078 41.5748ZM21.8781 47.9895C22.34 48.554 22.9045 49.2211 25.1111 50.0935C26.0348 50.4527 27.4717 50.7606 28.0875 50.7606C28.2928 50.7606 28.4468 50.8633 28.5494 50.9659C28.652 51.3764 28.7547 51.633 28.806 51.8383C28.9086 52.1975 29.3192 53.0186 30.2942 53.0186C30.3455 53.0186 30.3968 53.0186 30.3968 53.0186C31.4745 52.916 31.5771 52.1462 31.6284 51.6843C31.7311 50.658 31.8337 50.4014 32.039 50.3501C32.7061 50.1961 34.7075 49.529 36.0931 48.1947C36.7089 47.5789 37.6326 46.7065 38.2484 45.0131C38.9155 43.063 38.7616 41.6774 38.6076 40.805C38.4024 39.8813 37.5813 37.6746 36.1957 36.8022L35.7852 36.4943C34.5022 35.6732 34.143 35.4167 31.9364 34.9548L31.4745 34.8522C30.756 34.6982 30.3968 34.4416 30.2942 34.0824C30.1916 33.6719 29.781 33.21 29.0626 33.21H28.9599C28.4981 33.2613 28.0875 33.6205 27.7796 34.185L27.7283 34.2877C27.7283 34.4929 27.6257 34.9548 27.1638 35.1601C26.9072 35.2627 26.6506 35.314 26.3941 35.3653C26.0348 35.468 25.6756 35.5706 25.3677 35.7246C24.7006 36.0325 23.7769 36.4943 22.7505 37.572C21.5189 38.9063 21.6215 40.0352 21.9294 40.4458C21.9807 40.5484 22.0834 40.5997 22.186 40.6511C21.4676 41.1642 20.6465 42.3445 20.4412 43.7301C20.2359 45.167 20.6978 46.6039 21.6215 47.6302C21.7242 47.8355 21.7755 47.8868 21.8781 47.9895ZM31.2179 38.4957C31.3719 38.0852 31.4745 37.9825 31.7311 37.9825C31.7824 37.9825 31.8337 37.9825 31.8337 37.9825C32.4495 38.0339 33.1167 38.2391 34.143 39.0089C34.9641 39.676 35.7339 41.1129 35.6312 42.4472C35.426 44.4486 34.8101 45.6802 33.4759 46.6552C32.8601 47.1171 32.4495 47.271 32.0903 47.1684C31.6284 47.0658 31.5771 46.8605 31.4232 46.3986C31.2692 45.9881 31.064 43.3196 31.0126 42.4472V42.3445C30.9613 40.1892 31.0126 38.8549 31.2179 38.4957ZM23.5716 43.5248C23.7255 42.8064 23.9308 42.1393 24.2387 41.78C24.3927 41.5748 24.4953 41.4721 24.5466 41.3695C24.7006 41.0103 24.5979 40.7024 24.3927 40.4971C24.29 40.3945 24.0334 40.2405 23.5716 40.2405C23.9308 39.7787 24.1874 39.5221 24.7006 39.1115C24.9058 38.9576 25.2651 38.701 26.2401 38.2904C26.3941 38.2391 26.702 38.1365 27.0612 38.1365C27.2665 38.1365 27.4204 38.1365 27.5744 38.2391C27.677 38.2904 27.7796 38.3418 27.8823 38.8036C27.9849 39.3168 28.2415 41.934 28.2928 43.2169C28.3441 43.7814 28.3441 44.3972 28.3441 45.0131C28.3441 45.7828 28.3954 46.5013 28.4468 47.0144C28.4981 47.271 28.4468 47.4763 28.3441 47.5789C28.2415 47.6816 28.0875 47.7329 27.8823 47.7842H27.7796C27.3178 47.7842 26.3427 47.6816 25.573 47.3737C24.7519 47.0144 24.5466 46.8092 24.0848 46.1934C23.6742 45.4749 23.4176 44.2433 23.5716 43.5248ZM87.3594 68.4652C87.308 67.9007 87.2054 67.2849 87.0515 66.4125C86.8462 65.3348 86.5896 63.8466 86.333 61.6913C86.1791 60.5623 86.0764 59.9465 85.9738 59.2793C85.8712 58.8175 85.7685 58.3043 85.7172 57.6885C85.358 55.1226 82.7408 54.1476 81.5605 54.0963C81.0986 54.0963 80.7394 54.0963 80.3802 54.0963C78.9946 54.1476 77.9682 54.4555 76.8906 55.1226C75.1458 56.2003 74.1194 57.9964 73.8628 58.7149C73.247 60.511 72.8365 62.615 74.8379 64.5137C75.2484 64.873 75.9155 65.1296 76.5313 65.3348C76.8393 65.4375 77.1472 65.5401 77.4038 65.6427C77.7117 65.7967 77.6603 66.3612 77.3011 67.3362C77.0445 68.0033 76.634 68.8244 76.1208 69.7481C75.7103 70.4153 74.8892 72.0574 75.505 72.8785C75.7103 73.1864 76.0182 73.2891 76.4287 73.2891H76.48C77.3524 73.2377 78.4301 72.468 78.6867 72.0574C78.8406 71.8522 78.8406 71.7495 78.9433 71.5443C78.9946 71.4416 79.0459 71.2877 79.1485 71.0824C80.2775 68.7731 81.0473 67.2849 81.3039 66.9257C81.7657 66.2072 82.5355 66.1559 82.7921 66.1046C82.9461 66.1046 83.0487 66.1046 83.1 66.1046C83.5105 66.2072 83.5105 66.3612 83.6132 66.7717L83.6645 66.9257C83.6645 66.977 83.6645 67.0283 83.7158 67.0796C83.7671 67.2849 83.8698 67.5928 84.0237 68.8244C84.229 70.1587 85.4606 70.8258 86.0251 70.8258H86.1277C86.5383 70.7232 87.5133 70.1074 87.3594 68.4652ZM82.4842 60.4597C82.3302 61.4347 82.0737 61.9992 81.6631 62.3584C81.2526 62.6663 80.7907 62.8203 80.2775 62.8716C79.713 62.8716 79.0972 62.7176 78.738 62.615C78.3275 62.5124 77.3524 61.8965 77.0445 61.0241C76.8393 60.357 76.9419 59.6899 77.4551 58.9201C78.0196 58.099 78.5841 57.5859 79.3538 57.2266C79.5078 57.1753 79.6617 57.124 79.9183 57.124C80.7907 57.0727 81.8171 57.4832 82.1763 57.8425C82.5355 58.2017 82.6381 59.2793 82.4842 60.4597ZM70.3732 51.7357C69.1416 51.787 68.8337 53.9423 68.6284 55.5332C68.5771 55.7897 68.5771 56.0463 68.5258 56.2516C68.2692 57.7398 68.1153 58.5609 67.8587 59.0741C67.8074 59.1254 67.8074 59.228 67.756 59.3307C67.4995 59.9465 67.1402 60.6649 66.2165 60.9215C65.4468 61.1268 64.4717 61.2807 63.548 61.2807C62.1624 61.332 60.9308 61.1781 60.315 60.8702C59.7505 60.5623 59.6479 58.5609 59.5965 57.8938V57.7911C59.5965 57.6372 59.5452 56.9701 59.4939 56.2516C59.4426 55.4305 59.34 54.4555 59.34 53.9423C59.2373 52.7107 58.6215 51.8896 57.7491 51.9409H57.6978C56.4662 52.0436 56.0556 53.5318 56.1069 54.8147C56.1583 55.8924 56.3635 61.9479 56.3122 62.9229C56.2609 64.1032 56.0556 66.3612 55.9017 68.2086C55.799 69.7481 55.6451 70.9798 55.6964 71.2877C55.6964 72.314 55.8504 72.9298 56.2096 73.2377C56.4662 73.443 56.7228 73.5456 57.1846 73.5456C58.0057 73.4943 58.6728 72.6219 58.9807 71.1337C59.186 70.2613 59.2886 69.1836 59.3913 68.2086C59.4939 67.4388 59.5452 66.7717 59.6479 66.3612C59.8018 65.5914 60.315 64.9756 61.0334 64.6677C61.444 64.4624 62.8296 64.4111 63.3427 64.4111L64.523 64.3598H65.0362C66.6271 64.3085 67.1916 64.6164 67.4995 64.873C67.8587 65.1809 68.0126 65.848 67.9613 66.9257C67.91 67.5415 67.9613 71.2363 67.9613 71.6469C67.9613 73.2891 68.7824 73.6483 69.2443 73.6996C69.3469 73.6996 69.5008 73.6996 69.6035 73.6996C70.5785 73.6483 71.143 72.9298 71.2456 71.5443C71.2456 71.4416 71.2456 71.0311 71.2456 70.1587C71.2456 68.4652 71.2456 65.694 71.3996 63.7953C71.5022 62.1018 71.6562 59.9465 71.7075 58.253C71.7588 57.1753 71.8101 56.2516 71.8615 55.7384V55.5845C71.9641 54.1989 72.0667 52.762 71.3483 52.1462C70.9891 51.7357 70.6298 51.6843 70.3732 51.7357ZM50.6673 55.5845C49.487 55.2766 48.6659 55.1739 47.8448 55.2253C47.1777 55.2253 46.5619 55.3792 45.8434 55.6358C43.8934 56.3542 42.4565 57.8425 42.0459 58.4583C40.9683 60.1004 40.0959 62.0505 41.6354 64.3085C41.9433 64.7703 42.5078 65.1296 43.0723 65.4888C43.3289 65.6427 43.6368 65.848 43.842 66.002C44.0986 66.2072 43.9447 66.7717 43.3289 67.6441C42.867 68.2599 42.3025 68.9784 41.5841 69.7481C41.0709 70.3126 39.8393 71.7495 40.2498 72.6732C40.4038 72.9811 40.6603 73.1864 41.0196 73.2891C41.1735 73.2891 41.3275 73.3404 41.4814 73.3404C42.2512 73.2891 43.1236 72.9298 43.4828 72.5706C43.6881 72.3653 43.7907 72.2114 43.9447 72.0061C44.0473 71.8522 44.2013 71.6982 44.4065 71.4416C45.9461 69.5942 46.9724 68.4139 47.2803 68.106C47.6909 67.6954 48.1527 67.6441 48.4606 67.5928C48.8198 67.5928 49.0764 67.6441 49.1278 67.6954C49.487 67.9007 49.487 68.0547 49.4357 68.4652V68.6191C49.4357 68.6705 49.4357 68.7218 49.4357 68.7731C49.4357 68.9784 49.4357 69.2863 49.333 70.5179C49.2817 71.185 49.4357 71.8008 49.8975 72.2627C50.2054 72.6219 50.616 72.8785 50.9239 72.8785C50.9752 72.8785 50.9752 72.8785 51.0265 72.8785C51.5397 72.8785 52.566 72.4167 52.7713 70.8771C52.8739 70.3126 52.9253 69.6968 52.9766 68.8757C53.0279 67.7981 53.1818 66.2585 53.4384 64.1032C53.5924 62.9742 53.5924 62.3071 53.6437 61.64C53.6437 61.1781 53.695 60.6649 53.7463 60.0491C54.1056 57.3806 51.7963 55.8924 50.6673 55.5845ZM50.0515 61.9992C49.6922 62.9229 49.2817 63.4361 48.7685 63.6927C48.4606 63.8466 48.1527 63.8979 47.8448 63.9492C47.075 64.0006 46.4079 63.6413 45.8434 63.3334C45.4842 63.1282 44.7144 62.3584 44.6118 61.4347C44.5605 60.7676 44.8171 60.1004 45.5355 59.4333C46.3053 58.7149 46.9211 58.3556 47.7935 58.1504C47.8448 58.1504 47.8961 58.1504 47.9988 58.1504C48.8198 58.099 50.1028 58.8175 50.4107 59.382C50.616 59.7925 50.5133 60.8702 50.0515 61.9992ZM38.9155 70.9284C38.6076 69.235 38.0945 66.4638 37.8892 64.5651C37.6839 62.7689 37.4273 60.5623 37.2221 58.7662C37.1194 57.7911 37.0168 56.9701 36.9655 56.4569V56.2516C36.8115 54.866 36.6576 53.4291 35.8365 52.916C35.5286 52.7107 35.2207 52.7107 34.8615 52.762C33.6298 53.0186 33.7325 55.2253 33.7838 56.8161C33.7838 57.0727 33.7838 57.3293 33.7838 57.5345C33.7838 59.0228 33.7838 59.8952 33.6298 60.4597C33.6298 60.5623 33.5785 60.6136 33.5785 60.7162C33.4246 61.332 33.2193 62.1531 32.3469 62.5124C31.064 63.0768 29.3705 63.4874 27.9849 63.5387C27.3691 63.5387 26.8046 63.5387 26.4454 63.3848C25.8296 63.1795 25.3677 61.2294 25.1624 60.5623L25.1111 60.4083C25.0598 60.2031 24.8545 59.4333 24.6493 58.5609C24.444 57.8425 24.2387 57.0727 24.1361 56.6108C23.8282 55.3792 23.0071 54.6608 22.1347 54.866C21.0057 55.1739 20.7491 56.6108 21.057 57.9451C21.3136 59.0741 22.5966 65.0269 22.6992 66.002C22.8531 67.1823 23.0584 69.4402 23.2637 71.2877C23.4176 72.8272 23.5203 74.0588 23.5716 74.3667C23.7769 75.3931 24.0848 76.4707 25.1624 76.4194C25.2651 76.4194 25.3164 76.4194 25.419 76.3681C26.2401 76.2142 26.7533 75.2391 26.8046 73.6996C26.8046 72.7759 26.7533 71.6982 26.702 70.7232C26.6506 69.9534 26.5993 69.2863 26.6506 68.8244C26.6506 68.0547 27.0612 67.3362 27.7283 66.9257C28.1389 66.6691 29.5757 66.3612 30.6021 66.1559C30.91 66.1046 31.2179 66.0533 31.4745 66.002C31.9877 65.8993 32.3982 65.848 32.8088 65.7967C33.6298 65.7454 34.0404 65.9506 34.2456 66.1046C34.6562 66.3612 34.9128 66.977 35.0667 68.0547C35.118 68.5678 35.6312 71.3903 35.8878 72.7246C36.1957 74.3667 37.0681 74.572 37.5813 74.572C38.0945 74.572 38.4537 74.3667 38.7616 74.0588C39.2748 73.443 39.2235 72.468 39.2235 72.1087C39.1721 72.1601 39.0695 71.8008 38.9155 70.9284Z" fill="black"/>
<path d="M40.301 46.8092C40.4549 48.1434 40.7628 50.8119 40.9168 51.8896C41.0707 52.916 41.7379 53.3778 42.3537 53.3265C42.5076 53.3265 42.7129 53.2752 42.8155 53.2239C43.4827 52.8646 43.4314 51.9409 43.38 51.2225V50.9659C43.38 50.2474 43.38 49.6316 43.4313 49.4264C43.4827 49.2211 43.6366 49.1698 43.8932 49.1185C43.9958 49.1185 44.1498 49.1185 44.2524 49.1185C44.5603 49.1185 44.8682 49.1698 45.1248 49.1185H45.2275C45.2788 49.1185 45.3814 49.1185 45.4327 49.1185C47.1775 48.9132 47.9986 47.6303 48.4092 46.9631C48.8197 46.296 49.0763 45.167 49.1789 43.9354C49.2302 42.909 48.9736 41.7287 48.4605 40.7537C47.8447 39.7273 46.8183 39.1628 46.613 39.0602C46.3051 38.9063 45.792 38.7523 45.1248 38.8036C44.7656 38.8036 44.4577 38.8549 44.2011 38.9576C43.3287 39.2655 43.1234 39.4194 42.9182 39.6247C42.9182 39.6247 42.559 39.8813 42.1484 39.8813C42.0458 39.8813 41.9945 39.8813 41.8918 39.8813L41.7379 39.83C41.3786 39.7273 40.8655 39.676 40.5576 39.9326C40.301 40.1379 39.9931 40.4458 39.8904 41.8827C39.7878 43.5248 39.9931 44.8078 40.147 45.7828C40.2497 46.1934 40.301 46.5013 40.301 46.8092ZM43.0208 42.6011C43.5853 41.6774 44.0472 41.5235 44.4064 41.5235C44.4577 41.5235 44.509 41.5235 44.5603 41.5235C45.2275 41.5235 46.0485 42.4472 46.1512 43.7301C46.2538 45.2183 45.9459 45.7828 45.792 45.9881C45.7406 46.0907 45.3814 46.7065 44.7143 46.7065C44.1498 46.7065 43.8932 46.5013 43.6366 46.142C42.6103 45.0131 42.6616 43.1656 43.0208 42.6011ZM57.8003 48.2974C58.3648 46.5526 58.4674 43.5248 58.5187 42.3445C58.5187 42.2932 58.5187 40.959 58.4674 40.2405V40.0866C58.4161 39.7273 58.4161 39.4708 58.2621 39.0602C58.1595 38.8036 57.749 38.4444 57.2871 38.4444C57.0818 38.4444 56.8766 38.547 56.6713 38.701C56.2607 39.0089 56.1581 39.8813 56.0042 41.1642L55.9528 41.5235C55.6963 44.3972 55.6449 44.7565 54.8239 44.9104C54.7725 44.9104 54.7212 44.9104 54.6699 44.9104C54.516 44.9104 54.4133 44.9104 54.362 44.9104C54.0028 44.7565 53.6436 44.038 53.387 43.0117C53.387 42.909 53.3356 42.8064 53.3356 42.7551C53.0277 41.4208 52.8225 40.959 52.6172 40.3432C52.4119 39.7273 52.258 39.2655 51.7448 39.0602C51.5395 38.9576 51.129 38.9063 50.8724 39.0602C50.3592 39.3681 50.2053 39.9326 50.3079 40.959C50.3592 42.0879 50.6671 43.2169 50.8724 44.038V44.1407C51.2829 45.8855 51.8474 46.9118 52.6685 47.4763C53.3356 47.9382 53.7975 47.9382 54.0541 47.9382H54.1567C54.362 47.9382 54.5673 47.9895 54.7212 48.0921C54.8239 48.1947 54.8752 48.2461 54.8239 48.4513C54.7725 48.6053 54.7725 48.7079 54.7212 48.8106C54.6699 49.1185 54.6186 49.1185 54.208 49.8369C53.7462 50.5554 53.5409 51.0685 53.5922 51.3764C53.6436 51.8383 54.0028 52.0949 54.516 52.0949C54.8239 52.0949 55.1318 51.9922 55.3883 51.787C56.466 51.1712 57.1845 49.9909 57.8003 48.2974ZM73.7087 48.0408C74.5811 47.8868 74.6838 46.9631 74.6324 46.2447C74.6324 45.4236 74.5298 44.4486 74.4272 43.5248C74.3245 42.6524 74.1706 41.5235 74.068 40.8563C73.914 40.0352 73.2469 39.0089 72.6311 38.6497C72.3232 38.4957 71.81 38.3418 71.1429 38.3418C70.527 38.3418 69.9112 38.547 69.3981 38.9063C69.2441 39.0089 69.0901 39.1115 68.9875 39.2142C68.6796 39.4194 68.3204 39.7273 68.1151 39.7273C67.8585 39.7273 67.6533 39.5734 67.2427 39.2655C66.7295 38.8549 65.8058 38.3418 64.7795 38.4957C64.061 38.5984 63.6505 38.9063 63.1886 39.1628C63.086 39.2142 62.9834 39.3168 62.8807 39.3681C62.8294 39.4194 62.7268 39.4708 62.6241 39.5221C62.3162 39.7273 61.9057 39.9839 61.4951 40.0866C61.0333 40.1379 60.7254 40.805 60.5201 42.2932C60.4688 42.6011 60.3662 44.038 60.3148 45.0644C60.2635 45.5775 60.2635 45.9368 60.2635 46.0394C60.2122 46.6039 60.2122 47.425 60.4688 47.8868C60.6741 48.1947 61.0333 48.5026 61.4951 48.5026C61.6491 48.5026 61.7517 48.4513 61.9057 48.4C62.3675 48.1947 62.6755 47.6816 62.932 46.6552C63.0347 46.296 63.1373 45.7315 63.2399 45.0644C63.3426 44.3459 63.4965 43.5248 63.5992 43.2169C64.061 41.8314 64.5229 41.5235 64.7282 41.4721C65.2413 41.3182 65.6519 41.78 65.8571 42.7038C66.0111 43.4222 66.0111 44.4486 66.0624 45.3723C66.0624 46.0394 66.1137 46.6552 66.165 47.0658C66.2677 47.9895 66.8835 48.4 67.448 48.4C67.4993 48.4 67.5506 48.4 67.6019 48.4C68.3717 48.2461 68.577 47.7842 68.8849 46.9631C68.9875 46.6039 69.1415 45.9368 69.2441 45.167C69.3981 44.2946 69.552 43.2683 69.7573 42.909C70.0139 42.3959 70.4244 41.8827 70.835 41.8314C71.3994 41.8827 71.7074 42.9603 71.7587 43.3709L71.8613 44.0893C72.0153 45.2183 72.1692 46.4499 72.2718 46.9118C72.3745 47.6816 73.1956 48.1434 73.7087 48.0408ZM79.251 49.0671C79.6103 49.1698 79.9182 49.2211 80.2774 49.1698C81.3037 49.1185 82.0222 48.7079 82.1761 48.6053C84.4341 47.271 85.5118 43.5762 85.1526 42.2932C85.0499 41.9853 84.9986 41.78 84.9473 41.5748C84.7933 41.0103 84.742 40.7537 83.9723 39.6247C83.4078 38.7523 82.8946 38.3931 81.7143 38.1365C80.3287 37.8286 78.8405 38.0852 78.0194 38.8036C77.2497 39.4708 76.8391 39.83 76.1207 41.6774C75.4022 43.3709 75.4022 45.7315 76.0693 46.9118C76.8391 48.2461 78.0707 48.7079 79.251 49.0671ZM79.405 41.4721C79.9695 40.8563 80.6366 40.805 80.8932 40.7537C81.0471 40.7537 81.0985 40.7537 81.1498 40.7537C81.7143 40.8563 82.3814 41.2669 82.4327 43.5762C82.4327 43.9867 82.2275 45.1157 81.4577 45.8341C80.7906 46.4499 80.3287 46.6552 79.5589 46.3986C78.5839 46.0907 78.43 44.8591 78.43 44.8591C78.1734 43.6788 78.7892 42.1393 79.405 41.4721ZM21.7753 47.8868C22.2372 48.4513 22.8017 49.1185 25.0083 49.9909C25.932 50.3501 27.3689 50.658 27.9848 50.658C28.19 50.658 28.344 50.7606 28.4466 50.8633C28.5492 51.2738 28.6519 51.5304 28.7032 51.7357C28.8058 52.0949 29.2164 52.916 30.1914 52.916C30.2427 52.916 30.294 52.916 30.294 52.916C31.3717 52.8133 31.4743 52.0436 31.5257 51.5817C31.6283 50.5554 31.7309 50.2988 31.9362 50.2474C32.6033 50.0935 34.6047 49.4264 35.9903 48.0921C36.6061 47.4763 37.5298 46.6039 38.1456 44.9104C38.8128 42.9603 38.6588 41.5748 38.5049 40.7024C38.2996 39.7787 37.4785 37.572 36.0929 36.6996L35.6824 36.443C34.3995 35.6219 34.0402 35.3653 31.8336 34.9035L31.3717 34.8008C30.6533 34.6469 30.294 34.3903 30.1914 34.0311C30.0888 33.6205 29.6782 33.1587 28.9598 33.1587H28.8572C28.3953 33.21 27.9848 33.5692 27.6768 34.1337L27.5742 34.2364C27.5742 34.4416 27.4716 34.9035 27.0097 35.1088C26.7531 35.2114 26.4965 35.2627 26.24 35.314C25.8807 35.4167 25.5215 35.5193 25.2136 35.6732C24.5465 35.9812 23.6228 36.443 22.5964 37.5207C21.4161 38.8036 21.4674 39.9326 21.8266 40.3432C21.878 40.4458 21.9806 40.4971 22.0832 40.5484C21.3648 41.0616 20.5437 42.2419 20.3384 43.6275C20.1332 45.0644 20.595 46.5013 21.5187 47.5276C21.6214 47.6816 21.6727 47.7842 21.7753 47.8868ZM31.0638 38.3418C31.2178 37.9312 31.3204 37.8286 31.577 37.8286C31.6283 37.8286 31.6796 37.8286 31.6796 37.8286C32.2954 37.8799 32.9626 38.0852 33.9889 38.8549C34.81 39.5221 35.5798 40.959 35.4771 42.2932C35.2719 44.2946 34.656 45.5262 33.3218 46.5013C32.706 46.9631 32.2954 47.1171 31.9362 47.0144C31.4743 46.9118 31.423 46.7065 31.2691 46.2447C31.1151 45.8341 30.9099 43.1656 30.8585 42.2932V42.1906C30.8585 40.0352 30.9099 38.7523 31.0638 38.3418ZM23.4688 43.4222C23.6228 42.7038 23.828 42.0366 24.1359 41.6774C24.2899 41.4721 24.3925 41.3695 24.4438 41.2669C24.5978 40.9076 24.4952 40.5997 24.2899 40.3945C24.1872 40.2918 23.9307 40.1379 23.4688 40.1379C23.828 39.676 24.0846 39.4194 24.5978 39.0089C24.8031 38.8549 25.1623 38.5984 26.1373 38.1878C26.2913 38.1365 26.5992 38.0339 26.9584 38.0339C27.1637 38.0339 27.3176 38.0339 27.4716 38.1365C27.5742 38.1878 27.6768 38.2391 27.7795 38.701C27.8821 39.2142 28.1387 41.8314 28.19 43.1143C28.2413 43.6788 28.2413 44.2946 28.2413 44.9104C28.2413 45.6802 28.2927 46.3986 28.344 46.9118C28.3953 47.1684 28.344 47.3737 28.2413 47.4763C28.1387 47.5789 27.9848 47.6303 27.7795 47.6816H27.6768C27.215 47.6816 26.24 47.5789 25.4702 47.271C24.6491 46.9118 24.4438 46.7065 23.982 46.0907C23.5714 45.321 23.3148 44.1407 23.4688 43.4222ZM87.2566 68.3112C87.2053 67.7468 87.1026 67.1309 86.9487 66.2585C86.7434 65.1809 86.4868 63.6927 86.2302 61.5373C86.0763 60.4083 85.9736 59.7925 85.871 59.1254C85.7684 58.6635 85.6657 58.1504 85.6144 57.5346C85.2552 54.9687 82.638 53.9936 81.4577 53.9423C80.9958 53.9423 80.6366 53.9423 80.2774 53.9423C78.8918 53.9936 77.8655 54.3015 76.7878 54.9687C75.043 56.0463 74.0166 57.8425 73.7601 58.5609C73.1442 60.357 72.7337 62.461 74.7351 64.3598C75.1456 64.719 75.8128 64.9756 76.4286 65.1809C76.7365 65.2835 77.0444 65.3861 77.301 65.4888C77.6089 65.6427 77.5576 66.2072 77.1983 67.1823C76.9417 67.8494 76.5312 68.6705 76.018 69.5942C75.6075 70.2613 74.7864 71.9035 75.4022 72.7246C75.6075 73.0325 75.9154 73.1351 76.3259 73.1351H76.3773C77.2497 73.0838 78.3273 72.314 78.5839 71.9035C78.7379 71.6982 78.7379 71.5956 78.8405 71.3903C78.8918 71.2877 78.9431 71.1337 79.0458 70.9284C80.1748 68.6191 80.9445 67.1309 81.2011 66.7717C81.663 66.0533 82.4327 66.002 82.6893 65.9506C82.8433 65.9506 82.9459 65.9506 82.9972 65.9506C83.4078 66.0533 83.4078 66.2072 83.5104 66.6178L83.5617 66.7717C83.5617 66.823 83.5617 66.8744 83.613 66.9257C83.6643 67.1309 83.767 67.4388 83.9209 68.6705C84.1262 70.0047 85.3578 70.6719 85.9223 70.6719H86.025C86.4355 70.5692 87.4105 70.0047 87.2566 68.3112ZM82.3814 60.3057C82.2275 61.2807 81.9709 61.8452 81.5603 62.2045C81.1498 62.5124 80.6879 62.6663 80.1748 62.7176C79.6103 62.7176 78.9944 62.5637 78.6352 62.461C78.2247 62.3584 77.2496 61.7426 76.9417 60.8702C76.7365 60.2031 76.8391 59.5359 77.3523 58.7662C77.9168 57.9451 78.4813 57.4319 79.251 57.0727C79.405 57.0214 79.5589 56.9701 79.8155 56.9701C80.6879 56.9187 81.7143 57.3293 82.0735 57.6885C82.3814 58.099 82.5354 59.1254 82.3814 60.3057ZM70.2705 51.5817C69.0388 51.633 68.7309 53.7884 68.5257 55.3792C68.4743 55.6358 68.4743 55.8924 68.423 56.0977C68.1664 57.5859 68.0125 58.4069 67.7559 58.9201C67.7046 58.9714 67.7046 59.0741 67.6533 59.1767C67.3967 59.7925 67.0374 60.511 66.1137 60.7676C65.344 60.9728 64.3689 61.1268 63.4452 61.1268C62.0596 61.1781 60.828 61.0241 60.2122 60.7162C59.6477 60.4083 59.5451 58.4069 59.4938 57.7398V57.6372C59.4938 57.4832 59.4424 56.8161 59.3911 56.0977C59.3398 55.2766 59.2372 54.3015 59.2372 53.7884C59.1345 52.5567 58.5187 51.7357 57.6463 51.787H57.595C56.3634 51.8896 55.9528 53.3778 56.0042 54.6608C56.0555 55.7384 56.2608 61.7939 56.2094 62.7689C56.1581 63.9493 55.9528 66.2072 55.7989 68.0033C55.6963 69.5429 55.5423 70.7745 55.5936 71.0824C55.5936 72.1087 55.7476 72.7246 56.1068 73.0325C56.3634 73.2377 56.62 73.3404 57.0818 73.3404C57.9029 73.2891 58.57 72.4167 58.8779 70.9284C59.0832 70.056 59.1859 68.9784 59.2885 68.0033C59.3911 67.2336 59.4424 66.5665 59.5451 66.1559C59.699 65.3861 60.2122 64.7703 60.9307 64.4624C61.3412 64.2572 62.7268 64.2058 63.2399 64.2058L64.4202 64.1545H64.9334C66.5243 64.1032 67.0888 64.4111 67.3967 64.6677C67.7559 64.9756 67.9098 65.6427 67.8585 66.7204C67.8585 67.3362 67.8585 71.0311 67.8585 71.4416C67.8585 73.0838 68.6796 73.443 69.1415 73.4943C69.2441 73.4943 69.3981 73.4943 69.5007 73.4943C70.4757 73.443 71.0402 72.7246 71.1429 71.339C71.1429 71.2363 71.1429 70.8258 71.1429 69.9534C71.1429 68.2599 71.1429 65.4888 71.2968 63.59C71.3994 61.8965 71.5534 59.7412 71.6047 58.0477C71.656 56.9701 71.7074 56.0463 71.7587 55.5332V55.3792C71.8613 53.9936 71.9639 52.5567 71.2455 51.9409C70.8863 51.5817 70.527 51.5817 70.2705 51.5817ZM50.5645 55.4818C49.3842 55.1739 48.5631 55.0713 47.742 55.1226C47.0749 55.1226 46.4591 55.2766 45.7406 55.5332C43.7906 56.2516 42.3537 57.7398 41.9431 58.3556C40.8655 59.9978 39.9931 61.9479 41.5326 64.2058C41.8405 64.6677 42.405 65.0269 42.9695 65.3861C43.2261 65.5401 43.534 65.7454 43.7393 65.8993C43.9958 66.1046 43.8419 66.6691 43.2261 67.5415C42.7642 68.1573 42.1997 68.8757 41.4813 69.6455C40.9681 70.21 39.7365 71.6469 40.147 72.5706C40.301 72.8785 40.5576 73.0838 40.9168 73.1864C41.0707 73.1864 41.2247 73.2377 41.3786 73.2377C42.1484 73.1864 43.0208 72.8272 43.38 72.468C43.5853 72.2627 43.6879 72.1088 43.8419 71.9035C43.9445 71.7495 44.0985 71.5956 44.3037 71.339C45.8433 69.4915 46.8696 68.3112 47.1775 68.0033C47.5881 67.5928 48.0499 67.5415 48.3578 67.4902C48.7171 67.4902 48.9737 67.5415 49.025 67.5928C49.3842 67.7981 49.3842 67.952 49.3329 68.3626V68.5165C49.3329 68.5678 49.3329 68.6192 49.3329 68.6705C49.3329 68.8757 49.3329 69.1836 49.2302 70.4153C49.1789 71.0824 49.3329 71.6982 49.7947 72.1601C50.1026 72.5193 50.5132 72.7759 50.8211 72.7759C50.8724 72.7759 50.8724 72.7759 50.9237 72.7759C51.4369 72.7759 52.4632 72.314 52.6685 70.7745C52.7712 70.21 52.8225 69.5942 52.8738 68.7731C52.9251 67.6954 53.0791 66.1559 53.3356 64.0006C53.4896 62.8716 53.4896 62.2045 53.5409 61.5373C53.5409 61.0755 53.5922 60.5623 53.6436 59.8952C54.0028 57.2266 51.6422 55.7384 50.5645 55.4818ZM49.9487 61.8452C49.5895 62.7689 49.1789 63.2821 48.6657 63.5387C48.3578 63.6927 48.0499 63.744 47.742 63.7953C46.9723 63.8466 46.3051 63.4874 45.7406 63.1795C45.3814 62.9742 44.6117 62.2045 44.509 61.2807C44.4577 60.6136 44.7143 59.9465 45.4327 59.2793C46.2025 58.5609 46.8183 58.2017 47.6907 57.9964C47.742 57.9964 47.7933 57.9964 47.896 57.9964C48.7171 57.9451 50 58.6635 50.3079 59.228C50.5132 59.6899 50.3592 60.7162 49.9487 61.8452ZM38.8128 70.7745C38.5049 69.081 37.9917 66.3099 37.7864 64.4111C37.5811 62.615 37.3246 60.4083 37.1193 58.6122C37.0166 57.6372 36.914 56.8161 36.8627 56.3029V56.0977C36.7087 54.7121 36.5548 53.2752 35.7337 52.762C35.4258 52.6081 35.1179 52.5567 34.7587 52.6081C33.5271 52.8646 33.6297 55.0713 33.681 56.6621C33.681 56.9187 33.681 57.1753 33.681 57.3806C33.681 58.8688 33.681 59.7412 33.5271 60.3057C33.5271 60.4083 33.4757 60.4597 33.4757 60.5623C33.3218 61.1781 33.1165 61.9992 32.2441 62.3584C30.9612 62.9229 29.2677 63.3334 27.8821 63.3848C27.2663 63.4361 26.7018 63.3848 26.3426 63.2308C25.7268 63.0255 25.2649 61.0755 25.0596 60.4083L25.0083 60.2544C24.957 60.0491 24.7517 59.2793 24.5465 58.4069C24.3412 57.6885 24.1359 56.9187 24.0333 56.4569C23.7254 55.2253 22.9043 54.5068 22.0319 54.7121C20.9029 55.02 20.6463 56.4569 20.9542 57.7911C21.2108 58.9201 22.4938 64.873 22.5964 65.848C22.7504 67.0283 22.9556 69.2863 23.1609 71.1337C23.3149 72.6732 23.4175 73.9049 23.4688 74.2128C23.6741 75.2391 23.982 76.3168 25.0596 76.2655C25.1623 76.2655 25.2136 76.2655 25.3162 76.2142C26.1373 76.0602 26.6505 75.0852 26.7018 73.5456C26.7018 72.6219 26.6505 71.5443 26.5992 70.5692C26.5479 69.7995 26.4965 69.1323 26.5479 68.6705C26.5479 67.9007 26.9584 67.1823 27.6255 66.7717C28.0361 66.5151 29.473 66.2072 30.4993 66.002C30.8072 65.9506 31.1151 65.8993 31.3717 65.848C31.8849 65.7454 32.2954 65.694 32.706 65.6427C33.5271 65.5914 33.9376 65.7967 34.1429 65.9506C34.5534 66.2072 34.81 66.823 34.9639 67.9007C35.0153 68.4139 35.5284 71.2364 35.785 72.5706C36.0929 74.2128 36.9653 74.418 37.4785 74.418C37.9917 74.418 38.3509 74.2128 38.6588 73.9049C39.172 73.2891 39.1207 72.3653 39.1207 71.9548C39.0694 72.0574 38.9667 71.6469 38.8128 70.7745Z" fill="url(#paint2_linear)"/>
<path d="M19.7227 35.6732C21.1596 36.5456 21.724 36.8022 22.1346 36.1864C22.5451 35.5706 22.1859 35.0574 20.749 34.185C20.0819 33.7745 18.6963 33.1587 18.3371 33.6719C17.9265 34.2364 18.9529 35.2114 19.7227 35.6732ZM39.326 35.6732C39.9418 35.2114 41.0195 34.1337 40.6602 33.6205C40.301 33.1074 39.0181 33.6719 38.2996 34.185C36.9654 35.1601 36.5035 35.6219 36.9141 36.2377C37.3246 36.8022 37.9917 36.6996 39.326 35.6732ZM47.4855 34.1337C47.2802 33.5179 44.3038 34.5956 41.3274 35.7246C39.7365 36.3404 37.9404 37.0588 38.197 37.7259C38.4023 38.3931 40.301 37.9312 41.8919 37.418C45.946 36.0838 47.6908 34.7495 47.4855 34.1337ZM34.5534 29.1559C33.9376 28.8993 33.2192 30.0283 32.6034 31.5165C31.9876 33.0047 31.8336 33.8771 32.5007 34.1337C33.1679 34.4416 33.7324 33.7232 34.2969 32.235C34.9127 30.6954 35.1693 29.4125 34.5534 29.1559ZM21.8267 29.6178C21.1596 29.977 22.2372 32.081 22.853 33.056C23.4688 34.0311 24.1873 34.6982 24.9057 34.2877C25.6242 33.8771 24.4952 31.8244 23.8794 30.8494C23.2636 29.8744 22.4938 29.2585 21.8267 29.6178ZM21.0056 40.4458C21.1596 39.4707 18.7989 39.3168 17.1568 39.2142C15.5146 39.1115 13.2053 39.1628 13.1027 39.7787C12.9487 40.4458 15.2067 40.9076 16.7976 41.0103C18.4397 41.1642 20.8516 41.4208 21.0056 40.4458ZM20.5951 47.6302C20.2358 47.0144 19.0555 47.5789 17.67 48.5026C16.2844 49.4264 15.258 50.4527 15.6173 51.0172C16.1304 51.8383 17.1568 51.0685 18.5424 50.1448C19.9279 49.2211 21.0569 48.5026 20.5951 47.6302ZM20.903 50.9659C19.9279 52.1462 19.2095 53.0699 19.8766 53.6344C20.3385 54.0449 21.2622 53.3265 22.1859 52.1462C23.1609 50.9659 23.7254 50.4014 23.007 49.8369C22.4938 49.4264 21.878 49.7856 20.903 50.9659ZM36.093 48.8619C35.6311 49.2211 36.2469 50.1961 37.1706 51.3251C38.0944 52.4028 38.8128 53.3778 39.3773 52.8646C39.7365 52.5054 39.2234 51.5304 38.2996 50.4014C37.3759 49.2724 36.5548 48.5026 36.093 48.8619Z" fill="#FFD200"/>
<path d="M71.656 17.8147C73.8113 17.3015 75.043 15.4028 74.3758 13.658C73.7087 11.9132 71.3994 10.9382 69.2441 11.4513C67.0887 11.9645 65.8571 13.8633 66.5243 15.6081C67.1914 17.3529 69.5007 18.3279 71.656 17.8147Z" fill="url(#paint3_radial)"/>
<path d="M57.4924 23.7162C58.0056 24.3834 61.1872 26.2308 62.3676 26.4874C63.5479 26.744 64.9847 25.9229 65.5492 25.0505C66.1137 24.1781 65.8571 20.5859 65.8058 19.9187C65.7032 19.2516 64.3176 17.7634 63.5479 17.4042C62.7781 16.9936 58.1082 18.0713 56.8252 19.4056C55.5423 20.6885 56.62 22.5873 57.4924 23.7162Z" fill="#BCDA89"/>
<path d="M76.0695 21.7662C75.7616 22.6386 73.1444 25.5637 72.0154 26.1795C70.8864 26.7953 69.1416 26.4361 68.2692 25.769C67.3968 25.1018 66.4731 21.3043 66.3192 20.5859C66.2165 19.8674 67.1402 17.9174 67.756 17.2502C68.4232 16.5831 73.5036 16.1212 75.2484 17.045C77.0445 18.02 76.5827 20.3293 76.0695 21.7662Z" fill="#F99F31"/>
<path d="M71.656 17.8147C73.8113 17.3015 75.043 15.4028 74.3758 13.658C73.7087 11.9132 71.3994 10.9382 69.2441 11.4513C67.0887 11.9645 65.8571 13.8633 66.5243 15.6081C67.1914 17.3529 69.5007 18.3279 71.656 17.8147Z" fill="url(#paint4_radial)"/>
<path d="M74.7866 11.5027C74.3761 10.7842 71.6049 8.57755 70.4759 8.16701C69.3469 7.75647 67.8587 8.37228 67.1916 9.09073C66.5245 9.86049 66.2679 13.4014 66.2166 14.0172C66.2166 14.6843 67.3455 16.2752 68.0127 16.7884C68.6798 17.2502 73.3497 16.9423 74.7866 15.8133C76.2748 14.7357 75.4537 12.7343 74.7866 11.5027Z" fill="#F99F31"/>
<path d="M60.8796 9.19336C60.1098 9.50127 57.5952 12.0671 57.0821 13.1961C56.5689 14.2738 57.0307 15.916 57.7492 16.6857C58.4676 17.4555 62.0599 18.2253 62.727 18.3279C63.3941 18.4305 65.1389 17.4555 65.7034 16.8397C66.2679 16.1726 66.2679 11.3487 65.2929 9.75786C64.2665 8.11569 62.1625 8.68019 60.8796 9.19336Z" fill="#F99F31"/>
<path d="M57.4924 23.7676C58.0056 24.4347 61.1873 26.2821 62.3676 26.5387C63.5479 26.7953 64.9848 25.9742 65.5493 25.1018C66.1138 24.2294 65.8572 20.6372 65.8059 19.9701C65.7033 19.3029 64.3177 17.8147 63.5479 17.4555C62.7782 17.045 58.1083 18.1226 56.8253 19.4569C55.5424 20.6885 56.6714 22.6386 57.4924 23.7676Z" fill="#F99F31"/>
<mask id="mask0" mask-type="alpha" maskUnits="userSpaceOnUse" x="63" y="14" width="7" height="8">
<path d="M64.8307 20.6885C66.3189 21.9201 68.3716 21.7662 69.398 20.3293C70.4244 18.8924 70.0138 16.7371 68.4743 15.5054C66.9861 14.2738 64.9334 14.4278 63.907 15.8647C62.8807 17.3015 63.2912 19.4569 64.8307 20.6885Z" fill="url(#paint5_radial)"/>
</mask>
<g mask="url(#mask0)">
<path d="M64.8307 20.6885C66.3189 21.9201 68.3716 21.7662 69.398 20.3293C70.4244 18.8924 70.0138 16.7371 68.4743 15.5054C66.9861 14.2738 64.9334 14.4278 63.907 15.8647C62.8807 17.3015 63.2912 19.4569 64.8307 20.6885Z" fill="url(#paint6_radial)"/>
<path d="M69.3981 16.9423C69.7573 18.6358 68.6796 20.3293 66.9861 20.6885C65.2927 21.0477 63.5992 19.9701 63.2399 18.2766C62.8807 16.5831 63.9584 14.8896 65.6519 14.5304C67.3454 14.1199 69.0388 15.1975 69.3981 16.9423Z" fill="#FFD200"/>
</g>
<path fill-rule="evenodd" clip-rule="evenodd" d="M78.1735 29.9257C78.0708 29.1559 78.8406 28.2835 78.8919 27.5137C79.2511 21.7662 83.3052 15.8133 89.3094 14.4791C102.652 11.554 110.35 20.3293 110.606 21.0477C110.863 22.2794 104.961 34.1337 95.6728 37.0075C88.6423 39.2142 82.3302 35.3653 79.6104 30.952C79.3025 30.5928 78.3274 30.2849 78.1735 29.9257Z" fill="#76D9FF"/>
<path d="M92.1237 19.149C92.5855 19.5595 92.7908 20.124 92.7908 20.7911C92.7908 21.3556 92.5342 21.9714 92.0723 22.6386C91.8671 22.9465 91.5592 23.2544 91.2513 23.6649L90.7381 24.2294L90.1223 24.8452H91.7644C92.5855 24.8452 92.9961 25.1018 92.9961 25.6663C92.9961 26.2308 92.5855 26.4874 91.7644 26.4874H88.6341C87.9156 26.4874 87.5564 26.2308 87.5564 25.6663C87.5564 25.461 87.659 25.2045 87.9156 24.8966C88.0183 24.7939 88.1722 24.5886 88.3775 24.3834L88.942 23.7162C89.3012 23.3057 89.5578 22.9978 89.7631 22.7925C90.0196 22.4846 90.2249 22.228 90.3789 22.0228C90.7381 21.5609 90.892 21.1504 90.892 20.8938C90.892 20.3806 90.6868 20.124 90.2249 20.124C90.0196 20.124 89.8657 20.2266 89.7117 20.3806C89.6604 20.4319 89.6091 20.5346 89.5578 20.6372C89.5065 20.6885 89.4552 20.7911 89.4038 20.9451C89.2499 21.253 89.1472 21.407 89.0959 21.5096C88.942 21.6635 88.788 21.7662 88.5827 21.7662C88.0183 21.7662 87.7104 21.4583 87.7104 20.8425C87.7104 20.2266 87.9669 19.6622 88.4288 19.2003C88.942 18.6871 89.6091 18.4305 90.3276 18.4305C91.046 18.4305 91.6618 18.6871 92.1237 19.149Z" fill="white"/>
<path d="M99.1541 19.3542C99.77 20.0727 100.027 21.099 100.027 22.382C100.027 23.6649 99.7186 24.64 99.1541 25.4097C98.5897 26.1282 97.7686 26.4874 96.7935 26.4874C95.8185 26.4874 95.0487 26.1282 94.4329 25.4097C93.8171 24.6913 93.5605 23.6649 93.5605 22.382C93.5605 21.099 93.8684 20.0727 94.4329 19.3542C94.9974 18.6358 95.8185 18.2766 96.7935 18.2766C97.7686 18.2766 98.5383 18.6358 99.1541 19.3542ZM95.408 22.382C95.408 24.0242 95.8698 24.8452 96.7935 24.8452C97.7173 24.8452 98.1791 24.0242 98.1791 22.382C98.1791 20.7398 97.7173 19.9187 96.7935 19.9187C95.8698 19.9187 95.408 20.7398 95.408 22.382Z" fill="white"/>
<path d="M89.0959 30.4389C89.0959 30.9007 88.9933 31.3113 88.8393 31.6192C88.6341 32.0297 88.3775 32.1837 88.0696 32.1837C87.7617 32.1837 87.5564 32.0297 87.5564 31.6705C87.5564 31.5678 87.5564 31.5165 87.6077 31.4139C87.6077 31.3626 87.659 31.3113 87.659 31.3113L87.7617 31.1573C87.813 31.0547 87.8643 30.952 87.9156 30.8494C87.9669 30.7468 87.9669 30.5928 87.9669 30.4902V28.7967C87.9669 28.1809 88.1722 27.873 88.6341 27.873H90.7381C91.2 27.873 91.4052 28.1809 91.4052 28.7967V31.2086C91.4052 31.8244 91.1999 32.1323 90.7894 32.1323C90.3789 32.1323 90.1736 31.8244 90.1736 31.2086V28.9506H89.0959V30.4389Z" fill="white"/>
<path d="M92.9449 30.3875C92.9962 30.9007 93.3041 31.1573 93.8686 31.1573C94.0226 31.1573 94.1252 31.1573 94.2791 31.106C94.3818 31.0547 94.4844 31.0033 94.6384 30.952L94.9463 30.7981C95.0489 30.7468 95.1002 30.7468 95.2029 30.7468C95.5108 30.7468 95.716 30.9007 95.716 31.2086C95.716 31.4652 95.5621 31.6705 95.2029 31.8757C94.8436 32.081 94.3818 32.1837 93.8686 32.1837C93.2528 32.1837 92.7396 31.9784 92.3291 31.5678C91.9185 31.1573 91.7133 30.6441 91.7133 30.0283C91.7133 29.4125 91.9185 28.8993 92.3291 28.4888C92.7396 28.0782 93.2015 27.873 93.8173 27.873C94.3818 27.873 94.895 28.0782 95.2542 28.4888C95.6134 28.8993 95.8187 29.3612 95.8187 29.9257C95.8187 30.2336 95.6134 30.4389 95.2029 30.4389H92.9449V30.3875ZM94.5357 29.5665C94.4844 29.1046 94.2278 28.848 93.7146 28.848C93.2528 28.848 92.9962 29.1046 92.8936 29.5665H94.5357Z" fill="white"/>
<path d="M98.8977 27.9756C99.4108 27.9756 99.6161 28.1296 99.6161 28.4888C99.6161 28.848 99.3595 29.002 98.8463 29.002H98.3332V31.2599C98.3332 31.8757 98.1279 32.1837 97.7173 32.1837C97.3068 32.1837 97.1015 31.8757 97.1015 31.2599V29.002H96.5884C96.1265 29.002 95.8699 28.848 95.8699 28.4888C95.8699 28.1296 96.1265 27.9756 96.5884 27.9756H98.8977Z" fill="white"/>
<defs>
<filter id="filter0_d" x="0" y="22.7834" width="106.823" height="81.1187" filterUnits="userSpaceOnUse" color-interpolation-filters="sRGB">
<feFlood flood-opacity="0" result="BackgroundImageFix"/>
<feColorMatrix in="SourceAlpha" type="matrix" values="0 0 0 0 0 0 0 0 0 0 0 0 0 0 0 0 0 0 127 0"/>
<feOffset dy="4"/>
<feGaussianBlur stdDeviation="2.5"/>
<feColorMatrix type="matrix" values="0 0 0 0 0 0 0 0 0 0 0 0 0 0 0 0 0 0 0.25 0"/>
<feBlend mode="normal" in2="BackgroundImageFix" result="effect1_dropShadow"/>
<feBlend mode="normal" in="SourceGraphic" in2="effect1_dropShadow" result="shape"/>
</filter>
<linearGradient id="paint0_linear" x1="40.8017" y1="23.7737" x2="66.4531" y2="94.4047" gradientUnits="userSpaceOnUse">
<stop stop-color="#FCAF23"/>
<stop offset="1" stop-color="#F58023"/>
</linearGradient>
<linearGradient id="paint1_linear" x1="40.8017" y1="23.7737" x2="66.4531" y2="94.4047" gradientUnits="userSpaceOnUse">
<stop stop-color="#FCAF23"/>
<stop offset="1" stop-color="#F58023"/>
</linearGradient>
<linearGradient id="paint2_linear" x1="32.2253" y1="29.8562" x2="72.4071" y2="81.399" gradientUnits="userSpaceOnUse">
<stop stop-color="#00AEEF"/>
<stop offset="0.2261" stop-color="#007AB1"/>
<stop offset="0.4521" stop-color="#005288"/>
<stop offset="0.6107" stop-color="#1D3872"/>
<stop offset="0.6882" stop-color="#252C6B"/>
<stop offset="0.7272" stop-color="#242F6C"/>
<stop offset="0.7673" stop-color="#1F3671"/>
<stop offset="0.8078" stop-color="#11417B"/>
<stop offset="0.8486" stop-color="#005189"/>
<stop offset="0.8898" stop-color="#00639C"/>
<stop offset="0.9305" stop-color="#007BB7"/>
<stop offset="0.9647" stop-color="#0095DA"/>
</linearGradient>
<radialGradient id="paint3_radial" cx="0" cy="0" r="1" gradientUnits="userSpaceOnUse" gradientTransform="translate(70.4784 14.6158) rotate(-63.9091) scale(3.53566 3.8622)">
<stop stop-color="white"/>
<stop offset="0.1856" stop-color="#FCFCFC"/>
<stop offset="0.3186" stop-color="#F3F3F3"/>
<stop offset="0.4353" stop-color="#E3E3E3"/>
<stop offset="0.5426" stop-color="#CDCDCD"/>
<stop offset="0.6434" stop-color="#B0B0B0"/>
<stop offset="0.7395" stop-color="#8D8D8D"/>
<stop offset="0.8317" stop-color="#636363"/>
<stop offset="0.9186" stop-color="#343434"/>
<stop offset="1"/>
</radialGradient>
<radialGradient id="paint4_radial" cx="0" cy="0" r="1" gradientUnits="userSpaceOnUse" gradientTransform="translate(70.428 14.6423) rotate(-9.8134) scale(3.73719 3.72954)">
<stop stop-color="#3C2415"/>
<stop offset="0.2122" stop-color="#3E2516"/>
<stop offset="0.3643" stop-color="#452B19"/>
<stop offset="0.4977" stop-color="#52341E"/>
<stop offset="0.6203" stop-color="#644024"/>
<stop offset="0.7356" stop-color="#7F522A"/>
<stop offset="0.8453" stop-color="#A46A30"/>
<stop offset="0.9487" stop-color="#D58933"/>
<stop offset="1" stop-color="#F99F31"/>
</radialGradient>
<radialGradient id="paint5_radial" cx="0" cy="0" r="1" gradientUnits="userSpaceOnUse" gradientTransform="translate(66.6336 18.1232) rotate(-11.1253) scale(3.30091 3.39906)">
<stop stop-color="white"/>
<stop offset="0.1856" stop-color="#FCFCFC"/>
<stop offset="0.3186" stop-color="#F3F3F3"/>
<stop offset="0.4353" stop-color="#E3E3E3"/>
<stop offset="0.5426" stop-color="#CDCDCD"/>
<stop offset="0.6434" stop-color="#B0B0B0"/>
<stop offset="0.7395" stop-color="#8D8D8D"/>
<stop offset="0.8317" stop-color="#636363"/>
<stop offset="0.9186" stop-color="#343434"/>
<stop offset="1"/>
</radialGradient>
<radialGradient id="paint6_radial" cx="0" cy="0" r="1" gradientUnits="userSpaceOnUse" gradientTransform="translate(66.6402 18.1159) rotate(-9.8134) scale(3.3626 3.35572)">
<stop stop-color="#3C2415"/>
<stop offset="0.2122" stop-color="#3E2516"/>
<stop offset="0.3643" stop-color="#452B19"/>
<stop offset="0.4977" stop-color="#52341E"/>
<stop offset="0.6203" stop-color="#644024"/>
<stop offset="0.7356" stop-color="#7F522A"/>
<stop offset="0.8453" stop-color="#A46A30"/>
<stop offset="0.9487" stop-color="#D58933"/>
<stop offset="1" stop-color="#F99F31"/>
</radialGradient>
</defs>
</svg>
